{
    "index": "102",
    "name": "takasur",
    "aya": [{
            "transName": "అహ్సనుల్ బయాన్",
            "index": "1",
            "text": "అధికంగా   పొందాలన్న   ఆశ   మిమ్మల్ని   పరధ్యానంలో   పడ   వేసింది."
        },{
            "transName": "అహ్సనుల్ బయాన్",
            "index": "2",
            "text": "ఆఖరికి   మీరు   (ఈ   ఆశల   ఆరాటంలోనే)   సమాధులకు   చేరు   కుంటారు."
        },{
            "transName": "అహ్సనుల్ బయాన్",
            "index": "3",
            "text": "ఎన్నటికీ   కాదు.   మీరు   తొందరగానే   తెలుసుకుంటారు."
        },{
            "transName": "అహ్సనుల్ బయాన్",
            "index": "4",
            "text": "మరెన్నటికీ   కాదు...   మీరు   చాలా   తొందరగానే   తెలుసు   కుంటారు."
        },{
            "transName": "అహ్సనుల్ బయాన్",
            "index": "5",
            "text": "అది   కాదు.   మీరు   గనక   నిశ్చిత   జ్ఞానంతో   తెలుసుకున్న   ట్లయితే   (అసలు   పరధ్యానంలోనే   పడిఉండరు)."
        },{
            "transName": "అహ్సనుల్ బయాన్",
            "index": "6",
            "text": "మీరు   నరకాన్ని   చూసి   తీరుతారు."
        },{
            "transName": "అహ్సనుల్ బయాన్",
            "index": "7",
            "text": "అవును!   మీరు   దానిని   ఖచ్చితంగా   కళ్ళారా   చూస్తారు   సుమా!"
        },{
            "transName": "అహ్సనుల్ బయాన్",
            "index": "8",
            "text": "మరి   ఆ   రోజు   (దేవుని)   అనుగ్రహాల   గురించి   మిమ్మల్ని   తప్పకుండా   ప్రశ్నించటం   జరుగుతుంది."
        }]
}