{
    "index": "42",
    "name": "shurah",
    "aya": [{
            "transName": "అహ్సనుల్ బయాన్",
            "index": "1",
            "text": "హా   మీమ్‌."
        },{
            "transName": "అహ్సనుల్ బయాన్",
            "index": "2",
            "text": "ఐన్‌   సీన్‌   ఖాఫ్‌."
        },{
            "transName": "అహ్సనుల్ బయాన్",
            "index": "3",
            "text": "ఇదే   విధంగా   అపార   శక్తిమంతుడూ,   వివేచనాపరుడైన   అల్లాహ్‌   నీకూ,   నీకు   పూర్వం   గతించిన   వారికీ   వహీ   (సందేశ   ము)ని   పంపిస్తూ   వచ్చాడు."
        },{
            "transName": "అహ్సనుల్ బయాన్",
            "index": "4",
            "text": "ఆకాశాలలో,   భూమిలో   ఉన్నవన్నీ   ఆయనవే.   ఆయన   మహోన్న   తుడు,   చాలా   గొప్పవాడు."
        },{
            "transName": "అహ్సనుల్ బయాన్",
            "index": "5",
            "text": "ఆకాశం   వారిపై   నుంచి   పగిలి   పడిపోవటానికి   సిద్ధంగా   ఉన్నట్లే   ఉంది.   మరి   దైవదూతలంతా   స్తోత్రసమేతంగా   తమ   ప్రభువు   పవిత్రతను   కొనియాడుతున్నారు.   భూవాసుల   మన్నింపు   కోసం   వారు   వేడుకుంటున్నారు.   విన్నావా!   నిస్సందేహంగా   అల్లాహ్‌యే   క్షమించేవాడు,   కృపాకరుడు."
        },{
            "transName": "అహ్సనుల్ బయాన్",
            "index": "6",
            "text": "ఆయన్ని   వదలి   ఇతరులను   సంరక్షకులుగా   చేసుకున్న   వారిని   అల్లాహ్‌   కనిపెట్టుకునే   ఉన్నాడు.   వాళ్ల   (వ్యవహారాల)కు   నువ్వు   బాధ్యుడవు   కావు."
        },{
            "transName": "అహ్సనుల్ బయాన్",
            "index": "7",
            "text": "అలాగే   నీవు   ఉమ్ముల్‌   ఖురా   (మక్కా)   వారినీ,   దాని   పరిసరాల   వారిని   హెచ్చరించటానికి,   సందేహానికి   ఆస్కారమేలేని,   అందరూ   సమావేశమయ్యే   రోజు   గురించి   అప్రమత్తం   చేయటానికి   మేము   నీ   వద్దకు   అరబీ   ఖుర్‌ఆన్‌ను   వహీ   చేశాము.   (తీర్పు   అనంతరం)   ఒక   వర్గం   స్వర్గంలో   ఉండగా,   మరో   వర్గం   నరకాగ్నిలో   ఉంటుంది."
        },{
            "transName": "అహ్సనుల్ బయాన్",
            "index": "8",
            "text": "అల్లాహ్‌యే   గనక   తలచుకుంటే   వారందరినీ   ఒకే   సముదా   యంగా   చేసి   ఉండేవాడు.   అయితే   ఆయన   తాను   తలచిన   వారిని   తన   కారుణ్యంలోకి   తీసుకుంటాడు.   దుర్మార్గులను   కాపాడే   వాడు,   సహాయపడేవాడెవడూ   ఉండడు."
        },{
            "transName": "అహ్సనుల్ బయాన్",
            "index": "9",
            "text": "ఏమిటి,   వారు   అల్లాహ్‌ను   వదలి   ఇతరుల్ని   తమ   కార్యసాధకు   లుగా   చేసుకున్నారా?   (యదార్థమేమిటంటే)   అల్లాహ్‌యే   కార్య   సాధకుడు,   ఆయనే   మృతులను   బ్రతికిస్తాడు,   ఆయన   ప్రతిదానిపై   అధికారం   కలవాడు."
        },{
            "transName": "అహ్సనుల్ బయాన్",
            "index": "10",
            "text": "ఏ   ఏ   విషయంలో   మీరు   విభేదించారో,   దానికి   సంబంధించిన   తీర్పు   అల్లాహ్‌కే   అప్పగించబడుతుంది.   ఈ   అల్లాహ్‌యే   నా   ప్రభువు.   ఆయన్నే   నేను   నమ్ముకున్నాను.   ఆయన   వైపునకే   నేను   మరలుతున్నాను   (అని   ఓ   ప్రవక్తా!   నువ్వు   వారికి   చెప్పు)."
        },{
            "transName": "అహ్సనుల్ బయాన్",
            "index": "11",
            "text": "భూమ్యాకాశాలను   పుట్టించినవాడు   ఆయనే.   ఆయన   మీకోసం   మీ   నుండే   మీ   జతలను   చేశాడు.   పశువుల   జతలను   కూడా   చేశాడు.   ఈ   విధంగా   (ఇలలో)   మిమ్మల్ని   వ్యాపింపజేస్తున్నాడు.   ఆయన్ని   పోలిన   వస్తువేదీ   లేదు.   ఆయన   వినేవాడు,   చూచేవాడు."
        },{
            "transName": "అహ్సనుల్ బయాన్",
            "index": "12",
            "text": "భూమ్యాకాశాల   తాళం   చెవులు   ఆయనవే.   ఆయన   తాను   కోరిన   వారికి   ఉపాధిని   విస్తృతంగా   ఇస్తాడు,   (మరి   తాను   కోరిన   వారికి)   తగ్గించి   ఇస్తాడు.   నిశ్చయంగా   ఆయన   ప్రతిదీ   తెలిసిన   వాడు."
        },{
            "transName": "అహ్సనుల్ బయాన్",
            "index": "13",
            "text": "ఏ   ధర్మాన్ని   స్థాపించమని   అల్లాహ్‌   నూహ్‌కు   ఆజ్ఞాపించాడో   ఆ   ధర్మాన్నే   మీ   కొరకూ   నిర్ధారించాడు.   దానినే   (ఓ   ముహమ్మద్‌-   సఅసం!)   మేము   నీ   వైపుకు   (వహీ   ద్వారా)   పంపాము.   దాని   గురించే   ఇబ్రాహీముకు,   మూసాకు,   ఈసా   (అలైహిముస్సలాం)కు   కూడా   తాకీదు   చేశాము.   ఈ   ధర్మాన్నే   నెలకొల్పాలనీ,   అందులో   చీలిక   తీసుకు   రావద్దనీ   (వారికి)   ఉపదేశించాము.(ఓ   ముహమ్మద్‌   -   సఅసం!)   నువ్వు   ఏ   విషయం   వైపునకు   వారిని   పిలుస్తున్నావో   అది   బహుదైవారాధకులకు   చాలా   భారంగా   తోస్తుంది.   అల్లాహ్‌   తాను   కోరిన   వారిని   (తన   కార్యం   కొరకు)   ఎన్నుకుంటాడు.   తన   వైపు   మరలే   వానికి   ఆయన   సన్మార్గం   చూపుతాడు."
        },{
            "transName": "అహ్సనుల్ బయాన్",
            "index": "14",
            "text": "వాళ్లు   తమ   వద్దకు   'జ్ఞానం'   వచ్చిన   మీదటే   విభేదించుకున్నారు   -   (అదీ   కేవలం)   తమ   మధ్యగల   పంతాల   కారణంగానే!   'ఒక   నిర్ణీత   కాలం   కోసం'   అనే   నీ   ప్రభువు   మాట   ముందుగానే   ఖరారై   ఉండకపోతే   వాళ్ల   వ్యవహారం   (ఎప్పుడో)   తేలిపోయి   ఉండేది.   వాళ్ల   తరువాత   గ్రంథం   ప్రసాదించబడిన   వారు   కూడా   దాని   విషయంలో   చాలా   తొలచి   వేసే   అనుమానానికి   లోనై   ఉన్నారు."
        },{
            "transName": "అహ్సనుల్ బయాన్",
            "index": "15",
            "text": "కనుక   (ఓ   ప్రవక్తా!)   నువ్వు   వారిని   దాని   వైపునకే   పిలుస్తూ   ఉండు.   నీకు   ఆదేశించబడిన   దానిపై   నిలకడగా   ఉండు.   వాళ్ల   మనోవాంఛలకనుగుణంగా   మాత్రం   నడవకు.   వాళ్లకు   ఇలా   చెప్పేయ్‌:   'అల్లాహ్‌   అవతరింపజేసిన   ప్రతి   గ్రంథాన్నీ   నేను   విశ్వసించాను.   మీ   మధ్య   న్యాయం   చేయాలని   నాకు   ఆజ్ఞాపించ   బడింది.   అల్లాహ్‌యే   మా   ప్రభువు,   మీ   ప్రభువు   కూడాను.   మా   కర్మలు   మావి.   మీ   కర్మలు   మీవి.   మాకూ   -   మీకు   మధ్య   ఎలాంటి   వితండవాదానికి   తావు   లేదు.   అల్లాహ్‌   మనందరినీ   సమావేశపరుస్తాడు.   కడకు   ఆయన   వద్దకే   మరలి   పోవలసిఉంది.'"
        },{
            "transName": "అహ్సనుల్ బయాన్",
            "index": "16",
            "text": "ఎవరయితే   అల్లాహ్‌   విషయాన్ని   (ప్రజలు)   ఒప్పుకున్న   మీదట,   అందులో   వివాదాన్ని   మొదలెడతారో,   వారి   పిడివాదం   వారి   ప్రభువు   దృష్టిలో   నిరర్థకమైనది.   వారిపై   (దేవుని)   ఆగ్రహం   పడుతుంది.   వారి   కొరకు   కఠినమైన   శిక్ష   ఉంది."
        },{
            "transName": "అహ్సనుల్ బయాన్",
            "index": "17",
            "text": "అల్లాహ్‌యే   గ్రంథాన్ని   సత్యబద్ధంగా   అవతరింపజేశాడు.   త్రాసును   కూడా   (అవతరింపజేశాడు).   నీకేం   తెలుసు?   బహుశా   ప్రళయం   దగ్గరపడిందేమో!"
        },{
            "transName": "అహ్సనుల్ బయాన్",
            "index": "18",
            "text": "దాన్ని   నమ్మనివారే   దాని   గురించి   ఆత్రం   చేస్తున్నారు.   దాన్ని   నమ్మేవారు   మాత్రం   దానికి   భయపడుతూ   ఉన్నారు.   అది   రావటం   సత్యమని   (తథ్యమని)   వారికి   తెలుసు.   గుర్తుంచుకోండి!   ఆ   గడియ   విషయంలో   గోల   చేసేవారు   బహుదూరపు   అపమార్గంలో   పడి   ఉన్నారు."
        },{
            "transName": "అహ్సనుల్ బయాన్",
            "index": "19",
            "text": "అల్లాహ్‌   తన   దాసుల   పట్ల   ఎంతో   మృదువుగా   వ్యవహరిస్తాడు.   తాను   కోరిన   వారికి   విస్తృతంగా   ఉపాధిని   ఇస్తాడు.   ఆయన   గొప్ప   బలశాలి,   ప్రాబల్యం   కలవాడు."
        },{
            "transName": "అహ్సనుల్ బయాన్",
            "index": "20",
            "text": "ఎవరయితే   పరలోక   పంటను   ఆశిస్తాడో,   మేమతనికి   అతని   పంటలో   సమృద్ధిని   ఇస్తాము.   మరెవరయితే   ఇహలోక   పంటను   ఆశిస్తాడో   అతనికి   మేము   అందులో   నుంచే   ఎంతో   కొంత   ఇస్తాము.   ఇలాంటి   వ్యక్తికి   పరలోకంలో   ఏ   భాగమూ   ఉండదు."
        },{
            "transName": "అహ్సనుల్ బయాన్",
            "index": "21",
            "text": "ఏమిటి,   అల్లాహ్‌   అనుమతితో   నిమిత్తం   లేకుండానే   తమ   కోసం   ఏవైనా   ధర్మాదేశాలను   నిర్ధారించే   (అల్లాహ్‌)   భాగస్థులను   గాని   వారు   కలిగి   ఉన్నారా?   'తీర్పు'కు   సంబంధించిన   మాటే   గనక   ఖరారై   ఉండకపోయినట్లయితే   వీళ్ల   మధ్య   (ఇప్పుడే)   వ్యవ   హారం   తేల్చివేయబడేది.   నిజానికి   (ఇలాంటి)   దుర్మార్గుల   కోసమే   వ్యధాభరితమైన   శిక్ష   ఉన్నది."
        },{
            "transName": "అహ్సనుల్ బయాన్",
            "index": "22",
            "text": "ఈ   దుర్మార్గులు   తాము   చేసుకున్న   దానిపై   భయపడటం   నువ్వు   చూస్తావు.   అది   (ఆ   పాపం)   వారిపై   పడి   తీరుతుంది.   మరెవరయితే   విశ్వసించి,   సత్కార్యాలు   చేశారో   వారు   స్వర్గవనా   లలో   ఉంటారు.   వారు   కోరినదల్లా   వారికి   వారి   ప్రభువు   వద్ద   లభిస్తుంది.   అదే   అసలు   గొప్ప   అనుగ్రహం."
        },{
            "transName": "అహ్సనుల్ బయాన్",
            "index": "23",
            "text": "విశ్వసించి,   ('సున్నత్‌'   ప్రకారం)   సత్కార్యాలు   చేసిన   తన   దాసులకు   అల్లాహ్‌   ఇచ్చే   శుభవార్త   ఇదే!   (ఓ   ప్రవక్తా!)   వారికి   చెప్పు:   'దీనికిగాను   నేను   మీ   నుండి   ఎలాంటి   ప్రతిఫలాన్నీ   అడగటంలేదు.   కాని   బంధుత్వ   ప్రేమను   మాత్రం   కోరు   తున్నాను.'   ఎవడయినా   మంచి   చేస్తే   మేమతని   మంచిలో   మరింత   వృద్ధినిస్తాము.   నిశ్చయంగా   అల్లాహ్‌   అపారంగా   మన్నించేవాడు,   (సేవలకు   తగ్గ)   గుర్తింపునిచ్చేవాడూను."
        },{
            "transName": "అహ్సనుల్ బయాన్",
            "index": "24",
            "text": "'ఏమిటి,   ఇతను   (దైవప్రవక్త   -   స)   అల్లాహ్‌కు   వ్యతిరేకంగా   అబద్ధం   కల్పించాడని   వారంటున్నారా?'   అల్లాహ్‌యే   గనక   తలిస్తే   నీ   హృదయానికి   సీలు   వేస్తాడు.   అల్లాహ్‌   అసత్యాన్ని   చెరిపివేసి,   సత్యాన్ని   తన   వచనాల   ద్వారా   సత్యంగా   నిలిపి   ఉంచుతాడు.   ఆయన   ఆంతర్యాల్లో   దాగివున్న   విషయాలను   సైతం   ఎరిగినవాడు."
        },{
            "transName": "అహ్సనుల్ బయాన్",
            "index": "25",
            "text": "ఆయనే   తన   దాసుల   పశ్చాత్తాపాన్ని   స్వీకరిస్తాడు,   వారి   తప్పులను   మన్నిస్తాడు.   మీరు   చేసేదంతా   ఆయనకు   తెలుసు."
        },{
            "transName": "అహ్సనుల్ బయాన్",
            "index": "26",
            "text": "ఆయన   విశ్వసించి,   సదాచరణ   చేసే   వారి   (విన్నపాల)ని   వింటాడు.   తన   కృపతో   వారికి   మరింతగా   అనుగ్రహిస్తాడు.   మరి   అవిశ్వాసులకేమో   చాలా   కఠిన   శిక్ష   పడుతుంది."
        },{
            "transName": "అహ్సనుల్ బయాన్",
            "index": "27",
            "text": "మరి   అల్లాహ్‌   గనక   తన   దాసులందరికీ   పుష్కలంగా   ఉపాధిని   ప్రసాదిస్తే   వారు   భువిలో   చెలరేగిపోతారు.   కాని   ఆయన   మాత్రం   ఒక   లెక్క   ప్రకారం   -   తాను   కోరినదాన్ని   అవతరింపజేస్తూ   ఉంటాడు.   తన   దాసుల   సంగతిని   ఆయన   బాగా   ఎరిగినవాడు.   (ఆయన   వారిని)   గమనిస్తూ   ఉన్నాడు."
        },{
            "transName": "అహ్సనుల్ బయాన్",
            "index": "28",
            "text": "ప్రజలు   ఆశలన్నీ   వదులుకున్న   మీదట   (ఆకాశం   నుంచి)   వర్షాన్ని   కురిపించేవాడు   ఆయనే.   ఆయనే   తన   కారుణ్యాన్ని   వ్యాపింపజేస్తున్నాడు.   ఆయనే   కార్యసాధకుడు,   ప్రశంస   నీయుడు."
        },{
            "transName": "అహ్సనుల్ బయాన్",
            "index": "29",
            "text": "భూమ్యాకాశాల   సృష్టి,   వాటిలో   ప్రాణుల   సర్వవ్యాప్తి   కూడా   ఆయన   నిదర్శనాలలోనివే.   మరి   తాను   కోరినప్పుడు   వారందరినీ   సమీకరించే   శక్తి   కూడా   ఆయనకుంది."
        },{
            "transName": "అహ్సనుల్ బయాన్",
            "index": "30",
            "text": "మీపై   ఏ   ఆపదలొచ్చిపడినా,   అవి   మీ   చేజేతులా   చేసుకున్న   చేష్టల   (పాపాల)   ఫలమే.   ఆయనైతే   (వాటిలో)   చాలా   విషయా   లను   మన్నిస్తూ   ఉంటాడు."
        },{
            "transName": "అహ్సనుల్ బయాన్",
            "index": "31",
            "text": "మీరు   భూమిలో   (పారిపోయి)   మమ్మల్ని   లొంగదీయటం   అనేది   జరగని   పని.   మీకు   అల్లాహ్‌   తప్ప   మరో   కార్య   సాధకుడు   గానీ,   సహాయకుడుగానీ   లేడు."
        },{
            "transName": "అహ్సనుల్ బయాన్",
            "index": "32",
            "text": "సముద్రంలో   నడిచే   పర్వతాల్లాంటి   ఓడలు   (కూడా)   ఆయన   నిదర్శనాలలోనివే."
        },{
            "transName": "అహ్సనుల్ బయాన్",
            "index": "33",
            "text": "ఆయన   గనక   తలచుకుంటే   గాలిని   స్థంభింపజేయగలడు.   అప్పుడు   ఆ   ఓడలు   సముద్రంపైనే   నిలిచిపోతాయి.   నిశ్చయంగా   ఇందులో   సహనం   వహించే,   కృతజ్ఞులై   ఉండే   ప్రతి   ఒక్కరి   కొరకు   సూచనలున్నాయి."
        },{
            "transName": "అహ్సనుల్ బయాన్",
            "index": "34",
            "text": "లేదా   (ఆయన)   వారి   దురాగతాల   మూలంగా   వారిని   ముంచివేసినా   (ఆశ్చర్యం   లేదు).   ఆయన   మటుకు   (వారి)   తప్పులెన్నింటినో   మన్నిస్తూ   ఉంటాడు."
        },{
            "transName": "అహ్సనుల్ బయాన్",
            "index": "35",
            "text": "మా   సూచనల   విషయంలో   జగడం   చేసేవారికి,   తాము   పారి   పోయి   ఆశ్రయం   పొందే   చోటు   ఏదీ   లేదని   తెలిసివచ్చేలా   చేయ   టానికి   (మేమీ   విధంగా   చేస్తాము)."
        },{
            "transName": "అహ్సనుల్ బయాన్",
            "index": "36",
            "text": "మరి   మీకు   ఏది   ఇవ్వబడినా   అది   ప్రాపంచిక   జీవితపు   (తాత్కా   లిక)   సంపద   మాత్రమే.   అల్లాహ్‌   దగ్గర   ఉన్నది   ఇంతకన్నా   మేలైనది,   శాశ్వితమైనది.   విశ్వసించి,   కేవలం   తమ   ప్రభువును   నమ్ముకునేవారికి   మాత్రమే   అది   లభిస్తుంది."
        },{
            "transName": "అహ్సనుల్ బయాన్",
            "index": "37",
            "text": "(మరి   ఈ   భాగ్యవంతుల   గుణగణాలు   ఎటువంటివంటే)   వారు   పెద్ద   పెద్ద   పాపాలకు,   నీతిమాలిన   చేష్టలకు   దూరంగా   ఉంటారు.   కోపం   వచ్చినప్పుడు   (కూడా)   క్షమిస్తారు."
        },{
            "transName": "అహ్సనుల్ బయాన్",
            "index": "38",
            "text": "ఇంకా,   వారు   తమ   ప్రభువు   ఆజ్ఞను   శిరసావహిస్తారు.   నమాజును   నెలకొల్పుతారు.   వారి   (ప్రతి)   పని   పరస్పర   సలహా   సంప్రతింపుల   ద్వారా   జరుగుతుంది.   మేము   వారికి   ప్రసాదిం   చిన   దానిలో   నుంచి   (మా   పేరున)   ఖర్చుపెడతారు."
        },{
            "transName": "అహ్సనుల్ బయాన్",
            "index": "39",
            "text": "తమపై   దౌర్జన్యం   జరిగినప్పుడు,   ప్రతీకారం   మటుకు   తీర్చు   కుంటారు."
        },{
            "transName": "అహ్సనుల్ బయాన్",
            "index": "40",
            "text": "అపకారానికి   బదులు   అటువంటి   అపకారమే.   కాని   ఎవరయినా   (ప్రత్యర్థిని)   క్షమించి,   సయోధ్యకు   వస్తే   అతనికి   పుణ్య   ఫలం   ఇచ్చే   బాధ్యత   అల్లాహ్‌ది.   ఎట్టి   పరిస్థితిలోనూ   అల్లాహ్‌   దుర్మార్గులను   ప్రేమించడు."
        },{
            "transName": "అహ్సనుల్ బయాన్",
            "index": "41",
            "text": "తనకు   అన్యాయం   జరిగిన   మీదట   ఎవరైనా   (సరిసమానంగా)   ప్రతీకారం   తీర్చుకుంటే,   అలాంటి   వారిపై   (నిందలు   మోపే)   మార్గమేదీ   లేదు."
        },{
            "transName": "అహ్సనుల్ బయాన్",
            "index": "42",
            "text": "ఇతరులపై   దౌర్జన్యానికి   ఒడిగట్టి,   అకారణంగా   భువిలో   అరాచకాన్ని   సృష్టించేవారిని   మాత్రమే   (నిందార్హులుగా   నిలబెట్టే)   మార్గముంటుంది.   అలాంటి   వారికోసం   బాధాకరమైన   శిక్ష   ఉంది."
        },{
            "transName": "అహ్సనుల్ బయాన్",
            "index": "43",
            "text": "మరెవడయినా   సహనం   వహించి,   క్షమాభిక్షపెడితే,   నిస్సందే   హంగా   అది   సాహసోపేతమైన   పనులలో   (ఒకటిగా)   పరిగణించ   బడుతుంది."
        },{
            "transName": "అహ్సనుల్ బయాన్",
            "index": "44",
            "text": "అల్లాహ్‌   ఎవరినయినా   దారితప్పిస్తే,   ఇక   ఆ   తరువాత   అతన్ని   ఆదుకునే   వాడెవడూ   ఉండడు.   మరి   నువ్వే   చూద్దువు   గాని,   దుర్మార్గులు   శిక్షను   చూచినపుడు,   'మేము   తిరిగి   వెళ్ళే   మార్గం   ఏదైనా   ఉందా?!'   అని   అంటూ   ఉంటారు."
        },{
            "transName": "అహ్సనుల్ బయాన్",
            "index": "45",
            "text": "ఇంకా   నువ్వే   చూస్తావు-వాళ్లు   (నరకం)   ఎదుట   తేబడినప్పుడు,   అవమాన   భారంతో   కృంగిపోతుంటారు.   దొంగ   చూపులు   చూస్తుం   టారు.   అప్పుడు   విశ్వాసులు   ఇలా   అంటారు:   'ఈ   ప్రళయదినాన   తమ   స్వయాన్ని,   తమ   ఇంటివారలను   నష్టానికి   గురిచేసినవారే   వాస్తవానికి   నష్టం   పొందినవారు.'   నిశ్చయంగా   దుర్మార్గులు   శాశ్విత   యాతనలో   పడి   ఉన్నారని   తెలుసుకోండి."
        },{
            "transName": "అహ్సనుల్ బయాన్",
            "index": "46",
            "text": "అల్లాహ్‌   తప్ప   వారిని   ఆదుకునే   మిత్రులెవరూ   ఉండరు.   అల్లాహ్‌   దారి   తప్పించినవారికి   మరేమార్గమూ   ఉండదు."
        },{
            "transName": "అహ్సనుల్ బయాన్",
            "index": "47",
            "text": "(ప్రజలారా!)   తప్పించనలవికాని   ఆ   రోజు   అల్లాహ్‌   తరఫున   రాకమునుపే,   మీ   ప్రభువు   ఆజ్ఞను   శిరసావహించండి.   ఆ   రోజు   మీకు   ఏ   ఆశ్రయమూ   లభించదు,   దాక్కొని   ఆగంతకుల్లా   వ్యవహ   రించేందుకు   తగినచోటు   కూడా   దొరకదు."
        },{
            "transName": "అహ్సనుల్ బయాన్",
            "index": "48",
            "text": "ఓ   ప్రవక్తా!)   ఒకవేళ   వారు   గనక   ముఖం   త్రిప్పుకుంటే,   మేము   నిన్ను   వారిపై   కావలివానిగా   చేసి   పంపలేదు   సుమా!   సందేశాన్ని   అందజేయటం   వరకే   నీ   బాధ్యత.   మేము   మనిషికి   మా   కారుణ్యం   రుచిని   చూపించినపుడు   అతడు   ఆనందంతో   ఉబ్బి   తబ్బిబ్బైపోతాడు.   ఒకవేళ   వారిపై   వారి   స్వయంకృతాల   మూలంగా   ఏదైనా   ఆపద   వచ్చిపడితే,   మానవుడు   మా   మేలు   నంతా   మరచిపోతాడు."
        },{
            "transName": "అహ్సనుల్ బయాన్",
            "index": "49",
            "text": "భూమ్యాకాశాల   సామ్రాజ్యం   అల్లాహ్‌దే.   (ఆయన)   తాను   కోరినది   సృష్టిస్తాడు.   తాను   కోరినవారికి   ఆడపిల్లల్ని   ఇస్తాడు,   తాను   కోరిన   వారికి   మగపిల్లల్ని   ఇస్తాడు."
        },{
            "transName": "అహ్సనుల్ బయాన్",
            "index": "50",
            "text": "లేదా   వారికి   మగపిల్లలను,   ఆడపిల్లలను   కలిపి   ఇస్తాడు.   మరి   తాను   కోరిన   వారిని   సంతాన   హీనులుగా   చేసేస్తాడు.   ఆయన   మహాజ్ఞాని,   సంపూర్ణ   అధికారం   కలవాడు."
        },{
            "transName": "అహ్సనుల్ బయాన్",
            "index": "51",
            "text": "ఏ   మానవమాత్రునితోనూ,   అల్లాహ్‌   (నేరుగా)   సంభాషించటం   అనేది   జరగదు.   అయితే   వహీ   ద్వారా   లేదా   తెర   వెనుక   నుంచీ   లేదా   ఒక   దూతను   పంపటం   ద్వారా   (ఇది   సంభవమే).   మరి   ఆ   దూత   అల్లాహ్‌   ఆజ్ఞననుసరించి   అల్లాహ్‌   కోరిన   సందేశాన్ని   (వహీ   రూపంలో)   అందజేస్తాడు.   నిశ్చయంగా   ఆయన   మహోన్నతుడు,   వివేకవంతుడు."
        },{
            "transName": "అహ్సనుల్ బయాన్",
            "index": "52",
            "text": "అలాగే   (ఓ   ముహమ్మద్‌   -   సఅసం!)   మేము   మా   ఆజ్ఞతో   నీ   వద్దకు   ఒక   'రూహ్‌'   (ఆత్మ)ను   పంపాము.   అంతకు   ముందు   నీకు   గ్రంథమంటే   ఏమిటో,   విశ్వాసమంటే   ఏమిటో   తెలీదాయె.   కాని   మేము   దాన్ని   జ్యోతిగా   చేశాము.   దాని   ద్వారా   మా   దాసులలో   మేము   కోరిన   వారికి   సన్మార్గం   చూపుతున్నాము.   నిస్సందే   హంగా   (ఓ   ముహమ్మద్‌-స!)   నువ్వు   (ప్రజలకు)   రుజుమార్గం   వైపుకు   దర్శకత్వం   వహిస్తున్నావు..."
        },{
            "transName": "అహ్సనుల్ బయాన్",
            "index": "53",
            "text": "....భూమ్యాకాశాల్లోని   సమస్తానికీ   యజమాని   అయిన   అల్లాహ్‌   మార్గం   వైపుకు   (నడిపిస్తున్నావు).   తుదకు   సమస్త   వ్యవహారాలూ   అల్లాహ్‌   వద్దకే   చేరతాయి   సుమా!"
        }]
}