{
    "index": "51",
    "name": "Dariyat",
    "aya": [{
            "transName": "అహ్సనుల్ బయాన్",
            "index": "1",
            "text": "దుమ్మును   రేపే   గాలుల   సాక్షిగా!"
        },{
            "transName": "అహ్సనుల్ బయాన్",
            "index": "2",
            "text": "మరి   బరువును   లేపే   మేఘాలు   (సాక్షి!)"
        },{
            "transName": "అహ్సనుల్ బయాన్",
            "index": "3",
            "text": "మరి   అలవోకగా,   సుతిమెత్తగా   సాగిపోయే   ఓడలు   (సాక్షి!)"
        },{
            "transName": "అహ్సనుల్ బయాన్",
            "index": "4",
            "text": "మరి   పనులను   పంపకం   చేసేవారు   (సాక్షి!)"
        },{
            "transName": "అహ్సనుల్ బయాన్",
            "index": "5",
            "text": "మీకు   వేటి   గురించి   వాగ్దానం   చేయబడుతున్నదో   అవి   నిజంగా   సత్యమైనవి."
        },{
            "transName": "అహ్సనుల్ బయాన్",
            "index": "6",
            "text": "నిశ్చయంగా   న్యాయం   (తీర్పు)   జరగనున్నది."
        },{
            "transName": "అహ్సనుల్ బయాన్",
            "index": "7",
            "text": "మార్గాలతో   నిండిన   ఆకాశం   సాక్షిగా!"
        },{
            "transName": "అహ్సనుల్ బయాన్",
            "index": "8",
            "text": "నిశ్చయంగా   మీరు   అభిప్రాయభేదంతో   కూడిన   మాటలో   పడి   ఉన్నారు."
        },{
            "transName": "అహ్సనుల్ బయాన్",
            "index": "9",
            "text": "మరలింపబడినవాడే   దాన్నుండి   మరలి   పోతాడు."
        },{
            "transName": "అహ్సనుల్ బయాన్",
            "index": "10",
            "text": "నిరాధారమైన   మాటలు   మాట్లాడేవారు   నాశనమవుదురు   (గాక!)"
        },{
            "transName": "అహ్సనుల్ బయాన్",
            "index": "11",
            "text": "వారు   పరధ్యానంలో   పడి,   మైమరచి   పోయారు."
        },{
            "transName": "అహ్సనుల్ బయాన్",
            "index": "12",
            "text": "ఇంతకీ   తీర్పుదినం   ఎప్పుడట?!   అని   వారు   ప్రశ్నిస్తున్నారు."
        },{
            "transName": "అహ్సనుల్ బయాన్",
            "index": "13",
            "text": "అది   వారు   అగ్నిలో   మాడ్చబడే   దినమై   ఉంటుంది."
        },{
            "transName": "అహ్సనుల్ బయాన్",
            "index": "14",
            "text": "మీ   శిక్ష   యొక్క   రుచి   చూడండి.   ఏ   శిక్ష   గురించి   మీరు   హడావిడి   చేశారో   ఆ   శిక్ష   ఇదే!   (అని   వారితో   అనబడుతుంది)."
        },{
            "transName": "అహ్సనుల్ బయాన్",
            "index": "15",
            "text": "నిశ్చయంగా   భక్తిపరులు   మాత్రం   ఉద్యానవనాల,   ఊటల   మధ్య   ఉంటారు."
        },{
            "transName": "అహ్సనుల్ బయాన్",
            "index": "16",
            "text": "తమ   ప్రభువు   తమకు   ప్రసాదించిన   దాన్ని   వారు   గ్రహిస్తూ   ఉంటారు.   వారు   అంతకుముందు   సదాచార   సంపన్నులుగా   ఉండే   వారు."
        },{
            "transName": "అహ్సనుల్ బయాన్",
            "index": "17",
            "text": "వారు   రాత్రిపూట   చాలా   తక్కువగా   నిద్రించేవారు."
        },{
            "transName": "అహ్సనుల్ బయాన్",
            "index": "18",
            "text": "రాత్రి   చివరి   గడియలలో   క్షమాపణకై   (అల్లాహ్‌ను)   వేడుకునే   వారు."
        },{
            "transName": "అహ్సనుల్ బయాన్",
            "index": "19",
            "text": "వారి   ధనంలో   యాచించేవారికి,   యాచించని   పేదవారికి   కూడా   హక్కుండేది."
        },{
            "transName": "అహ్సనుల్ బయాన్",
            "index": "20",
            "text": "నమ్మేవారికి   భూమిలో   పలు   నిదర్శనాలున్నాయి."
        },{
            "transName": "అహ్సనుల్ బయాన్",
            "index": "21",
            "text": "స్వయంగా   మీ   ఆత్మలలో   (అస్తిత్వంలో)   కూడా   ఉన్నాయి.   మరి   మీరు   పరిశీలనగా   చూడటం   లేదా?"
        },{
            "transName": "అహ్సనుల్ బయాన్",
            "index": "22",
            "text": "ఇంకా   మీ   ఉపాధి,   దాంతోపాటు   మీకు   వాగ్దానం   చేయబడే   దంతా   ఆకాశంలోనే   ఉంది."
        },{
            "transName": "అహ్సనుల్ బయాన్",
            "index": "23",
            "text": "కనుక   భూమ్యాకాశాల   ప్రభువు   సాక్షిగా!   ముమ్మాటికీ   ఇది   సత్యం.   మీరు   పరస్పరం   మాట్లాడుకుంటున్నట్లే   (సత్యమిది)."
        },{
            "transName": "అహ్సనుల్ బయాన్",
            "index": "24",
            "text": "(ఓ   ప్రవక్తా!)   ఏమిటి,   ఇబ్రాహీము   యొక్క   గౌరవనీయులైన   అతిథుల   గాధ   నీకు   చేరిందా?!"
        },{
            "transName": "అహ్సనుల్ బయాన్",
            "index": "25",
            "text": "వారతని   దగ్గరకు   వచ్చినప్పుడు   అతనికి   'సలామ్‌'   చెప్పారు.   అతను   కూడా   సలాంకు   జవాబు   చెప్పి,   'వీళ్లు   అపరిచిత   వ్యక్తుల్లా   ఉన్నారే!'   (అనుకున్నాడు)."
        },{
            "transName": "అహ్సనుల్ బయాన్",
            "index": "26",
            "text": "తరువాత   (మారు   మాట్లాడకుండా   గబగబా)   తన   ఇంటివారి   వద్దకు   వెళ్ళి,   ఒక   బలిసిన   ఆవుదూడను   (దాని   మాంసము   వేయించి)   తెచ్చాడు."
        },{
            "transName": "అహ్సనుల్ బయాన్",
            "index": "27",
            "text": "(అప్పటికీ   వారు   తినకపోయేసరికి)   వారి   గురించి   లోలోపలే   భయపడి   పోయాడు.   'భయపడకండి'   అని   వారు   అభయ   మిచ్చారు.   ఇంకా   వారతనికి   జ్ఞానసంపన్నుడైన   అబ్బాయి   పుడతా   డని   శుభవార్త   వినిపించారు."
        },{
            "transName": "అహ్సనుల్ బయాన్",
            "index": "28",
            "text": "దాన్ని   వారి   ముందు   సమర్పించాడు.   '(అయ్యో!)   మీరు   తినరేమిటీ?'అన్నాడు."
        },{
            "transName": "అహ్సనుల్ బయాన్",
            "index": "29",
            "text": "అంతలోనే   అతని   భార్య   లబోదిబోమంటూ   ముందుకు   వచ్చింది.   నెత్తీ   నోరూ   బాదుకుంటూ,   'హవ్వ!   నేనా   ముసలిదాన్ని.   దానికి   తోడు   గొడ్రాలిని   కూడా'   (నాకు   సంతానమేమిటి?)   అని   అన్నది."
        },{
            "transName": "అహ్సనుల్ బయాన్",
            "index": "30",
            "text": "'అవును,   ఇలాగే   జరుగుతుందని   నీ   ప్రభువు   సెలవిచ్చాడు.   నిశ్చయంగా   ఆయన   వివేకవంతుడు,   సర్వం   తెలిసినవాడు'   అని   వారన్నారు."
        },{
            "transName": "అహ్సనుల్ బయాన్",
            "index": "31",
            "text": "'ఓ   దైవదూతలారా!   ఇంతకీ   మీ   రాకలోని   ముఖ్య   ఉద్దేశం   ఏమిటి?'   అని   (ఇబ్రాహీము)   అడిగాడు."
        },{
            "transName": "అహ్సనుల్ బయాన్",
            "index": "32",
            "text": "'మేము   అపరాధ   జనుల   వైపుకు   పంపబడ్డాము."
        },{
            "transName": "అహ్సనుల్ బయాన్",
            "index": "33",
            "text": "'వారిపై   మట్టి   రాళ్ళను   కురిపించటానికి   (వచ్చాము)."
        },{
            "transName": "అహ్సనుల్ బయాన్",
            "index": "34",
            "text": "'బరితెగించిపోయిన   వారి   కోసం   నీ   ప్రభువు   వద్ద   గుర్తులు   వేయబడిన   రాళ్ళవి'   అని   వారు   చెప్పారు."
        },{
            "transName": "అహ్సనుల్ బయాన్",
            "index": "35",
            "text": "మరి   అక్కడున్న   విశ్వాసులందరినీ   మేము   బయటికి   తీసుకు   వచ్చాము."
        },{
            "transName": "అహ్సనుల్ బయాన్",
            "index": "36",
            "text": "అయితే   మేమక్కడ   ముస్లింలకు   చెందిన   ఒక్కగానొక్క   ఇల్లును   మాత్రమే   కనుగొన్నాము."
        },{
            "transName": "అహ్సనుల్ బయాన్",
            "index": "37",
            "text": "మరి   మేమక్కడ,   వ్యధాభరితమైన   శిక్షకు   భయపడేవారి   కోసం   ఒక   (స్పష్ట   మైన)   సూచనను   వదలిపెట్టాము."
        },{
            "transName": "అహ్సనుల్ బయాన్",
            "index": "38",
            "text": "మరి   మూసా   (వృత్తాంతం)లో   కూడా   (మా   తరఫున   సూచన   ఉంది).   మేమతనికి   స్పష్టమైన   ప్రమాణాన్ని   ఇచ్చి   ఫిరౌను   వద్దకు   పంపించాము."
        },{
            "transName": "అహ్సనుల్ బయాన్",
            "index": "39",
            "text": "కాని   అతను   (ఫిరౌను)   తన   బలగాలను   చూసుకుని   విముఖ   తకు   పాల్పడ్డాడు.   '(వీడా!   వీడొక)   మాంత్రికుడో   లేదా   పిచ్చి   వాడో   అయి   ఉంటాడ'ని   ప్రేలాడు."
        },{
            "transName": "అహ్సనుల్ బయాన్",
            "index": "40",
            "text": "ఎట్టకేలకు   మేము   అతన్నీ,   అతని   సైన్యాలను   పట్టుకుని   సముద్రంలో   పడవేశాము.   వాడసలు   నిందార్హుడే."
        },{
            "transName": "అహ్సనుల్ బయాన్",
            "index": "41",
            "text": "అలాగే   ఆదు   వారిలో   కూడా   (మా   తరఫున   సూచన   కలదు).   మేము   వారిపై   అశుభమైన   గాలులను   పంపినపుడు,"
        },{
            "transName": "అహ్సనుల్ బయాన్",
            "index": "42",
            "text": "అవి   ఏ   వస్తువుపై   వీచినా   (ఎడాపెడా   ఊపేసి)   దాన్ని   తుత్తు   నియలు   చేసిగాని   వదిలేవి   కావు."
        },{
            "transName": "అహ్సనుల్ బయాన్",
            "index": "43",
            "text": "ఇంకా   సమూదు   (గాథ)లో   కూడా   (గుణపాఠం   ఉంది).   'కొద్ది   రోజుల   పాటు   లబ్ది   పొందండి'   అని   వారితో   అనబడినప్పుడు..."
        },{
            "transName": "అహ్సనుల్ బయాన్",
            "index": "44",
            "text": "(వారు   దారికి   రాకుండా)   తమ   ప్రభువు   ఆజ్ఞ   పట్ల   పెడసరి   వైఖరిని   ప్రదర్శించారు.   తత్కారణంగా   వారు   చూస్తూ   ఉండగానే   ఒక   భయంకరమైన   కేక   (ప్రేలుడు)   అమాంతం   వారిని   కబళిం   చింది."
        },{
            "transName": "అహ్సనుల్ బయాన్",
            "index": "45",
            "text": "అంతే!   (ఆ   దెబ్బకు)   వారు   నిలబడనూ   లేకపోయారు.   తమకు   సహాయం   కూడా   చేసుకోలేకపోయారు."
        },{
            "transName": "అహ్సనుల్ బయాన్",
            "index": "46",
            "text": "మరి   నూహ్‌   జాతివారికి   కూడా   అంతకుమునుపు   (అదే   గతి   పట్టింది).   వారు   కూడా   పరమ   అవిధేయులుగా   ఉండేవారు."
        },{
            "transName": "అహ్సనుల్ బయాన్",
            "index": "47",
            "text": "ఇంకా   ఆకాశాన్ని   మేము   (మా)   హస్తాలతో   నిర్మించాము.   నిశ్చయంగా   మేము   విశాలంగా   చేసేవారము."
        },{
            "transName": "అహ్సనుల్ బయాన్",
            "index": "48",
            "text": "భూమిని   మేము   పాన్పుగా   చేశాము.   ఎంతయినా   మేము   చాలా   చక్కగా   పరచేవారము."
        },{
            "transName": "అహ్సనుల్ బయాన్",
            "index": "49",
            "text": "మరి   మీరు   హితబోధను   గ్రహించేటందుకుగాను   మేము   ప్రతి   వస్తువునూ   జతలు   జతలుగా   సృష్టించాము."
        },{
            "transName": "అహ్సనుల్ బయాన్",
            "index": "50",
            "text": "కనుక   మీరు   అల్లాహ్‌   వైపు   పరుగెత్తండి.   నేను   మాత్రం   ఆయన   తరఫున   (వచ్చి)   మిమ్మల్ని   స్పష్టంగా   హెచ్చరించేవాణ్ణి   మాత్రమే."
        },{
            "transName": "అహ్సనుల్ బయాన్",
            "index": "51",
            "text": "అల్లాహ్‌తోపాటు   మరో   ఆరాధ్య   దైవాన్ని   చేర్చకండి.   నిశ్చ   యంగా   నేను   ఆయన   తరఫున   మిమ్మల్ని   స్పష్టంగా   హెచ్చరించే   వాడిని."
        },{
            "transName": "అహ్సనుల్ బయాన్",
            "index": "52",
            "text": "ఇలాగే   వీరికి   పూర్వం   గడచిన   వారు   కూడా   తమ   వద్దకు   వచ్చిన   ప్రవక్తను   గురించి,   'ఇతడు   మాంత్రికుడైనా   అయిఉంటాడు   లేదా   పిచ్చివాడైనా   అయి   ఉంటాడు'   అనేవారు."
        },{
            "transName": "అహ్సనుల్ బయాన్",
            "index": "53",
            "text": "ఏమిటీ,   ఈ   విషయాన్ని   వారు   ఒండొకరికి   తాకీదు   చేసు   కుంటూ   వస్తున్నారా?   లేదు,   అసలు   వారంతా   తలబిరుసులే."
        },{
            "transName": "అహ్సనుల్ బయాన్",
            "index": "54",
            "text": "కాబట్టి   నువ్వు   వాళ్ల   నుండి   ముఖం   త్రిప్పుకో.   నీపై   ఎలాంటి   నింద   ఉండదు."
        },{
            "transName": "అహ్సనుల్ బయాన్",
            "index": "55",
            "text": "అయితే   బోధనా   కార్యక్రమాన్ని   మాత్రం   కొనసాగించు.   ఎందుకంటే   బోధన   విశ్వాసులకు   లాభదాయకం   అవుతుంది."
        },{
            "transName": "అహ్సనుల్ బయాన్",
            "index": "56",
            "text": "నేను   జిన్నాతులను,   మానవులను   సృష్టించినది   వారు   నన్ను   ఆరాధించటానికి   మాత్రమే."
        },{
            "transName": "అహ్సనుల్ బయాన్",
            "index": "57",
            "text": "నేను   వారి   నుండి   జీవనోపాధిని   కోరటం   లేదు.   వారు   నాకు   అన్నం   పెట్టాలని   కూడా   నేను   కోరటంలేదు."
        },{
            "transName": "అహ్సనుల్ బయాన్",
            "index": "58",
            "text": "అల్లాహ్‌యే   స్వయంగా   అందరికీ   ఉపాధిని   సమకూర్చేవాడు.   ఆయన   మహా   శక్తిశాలి,   మహాబలుడు."
        },{
            "transName": "అహ్సనుల్ బయాన్",
            "index": "59",
            "text": "కాబట్టి   ఈ   దుర్మార్గుల్లాంటి   వారికి   ఏ   వంతు   లభించిందో   అలాంటి   వంతే   వీరికి   కూడా   లభిస్తుంది.   కాబట్టి   వారు   దాని   కోసం   నన్ను   తొందరపెట్టరాదు."
        },{
            "transName": "అహ్సనుల్ బయాన్",
            "index": "60",
            "text": "ఏ   దినం   గురించి   వాగ్దానం   చేయబడుతున్నదో   ఆ   దినాన   అవిశ్వాసులకు   మూడటం   తథ్యం."
        }]
}