{
    "index": "53",
    "name": "Nazm",
    "aya": [{
            "transName": "అహ్సనుల్ బయాన్",
            "index": "1",
            "text": "క్రింద   పడేటప్పటి   నక్షత్రం   సాక్షిగా!"
        },{
            "transName": "అహ్సనుల్ బయాన్",
            "index": "2",
            "text": "మీ   సహచరుడు   (అయిన   ముహమ్మద్‌-   స)   దారి   తప్పనూ   లేదు,   పెడదారి   పట్టనూ   లేదు."
        },{
            "transName": "అహ్సనుల్ బయాన్",
            "index": "3",
            "text": "అతను   తన   మనోవాంఛల   ప్రకారం   మాట్లాడటమూ   లేదు."
        },{
            "transName": "అహ్సనుల్ బయాన్",
            "index": "4",
            "text": "అది   (అతను   మాట్లాడేదంతా)   అతని   వద్దకు   పంపబడే   దైవవాణి   (వహీ)   తప్ప   మరేమీ   కాదు."
        },{
            "transName": "అహ్సనుల్ బయాన్",
            "index": "5",
            "text": "అసాధారణ   శక్తిగల   దైవదూత   (జిబ్రయీల్‌)   అతనికి   (ఖుర్‌ఆన్‌)   నేర్పాడు."
        },{
            "transName": "అహ్సనుల్ బయాన్",
            "index": "6",
            "text": "అతడు   గొప్ప   శక్తిసంపన్నుడు.   మరి   అతను   తిన్నగా   నిలబడ్డాడు   -"
        },{
            "transName": "అహ్సనుల్ బయాన్",
            "index": "7",
            "text": "అతడు   ఎత్తయిన   ఆకాశపుటంచులపై   ఉన్నాడు."
        },{
            "transName": "అహ్సనుల్ బయాన్",
            "index": "8",
            "text": "మరి   అతను   సమీపించసాగాడు....   అలా   అలా   వాలుతూ   వచ్చాడు."
        },{
            "transName": "అహ్సనుల్ బయాన్",
            "index": "9",
            "text": "చివరికి   అతను   రెండు   ధనస్సులంత   దూరాన   లేక   అంత   కన్నా   తక్కువ   దూరాన   ఉండిపోయాడు."
        },{
            "transName": "అహ్సనుల్ బయాన్",
            "index": "10",
            "text": "తరువాత   అతడు   దైవదాసునికి   అందజేయవలసిన   సందే   శాన్ని   అందజేశాడు."
        },{
            "transName": "అహ్సనుల్ బయాన్",
            "index": "11",
            "text": "(ప్రవక్త)   తిలకించినది   అసత్యమని   అతని   హృదయం   చెప్ప   లేదు."
        },{
            "transName": "అహ్సనుల్ బయాన్",
            "index": "12",
            "text": "ఏమిటీ   (ప్రవక్త)   చూస్తున్న   దానిపై   మీరు   అతనితో   వాదులాడు   తున్నారా?"
        },{
            "transName": "అహ్సనుల్ బయాన్",
            "index": "13",
            "text": "అతను   (ముహమ్మద్‌   -   స)   అతన్ని   (జిబ్రయీల్‌ను)   మరో   సందర్భంలో   కూడా   చూసి   ఉన్నాడు   -"
        },{
            "transName": "అహ్సనుల్ బయాన్",
            "index": "14",
            "text": "'సిద్రతుల్‌   మున్తహా'   దగ్గర!"
        },{
            "transName": "అహ్సనుల్ బయాన్",
            "index": "15",
            "text": "అక్కడే   'జన్నతుల్‌   మావా'   కూడా   ఉంది."
        },{
            "transName": "అహ్సనుల్ బయాన్",
            "index": "16",
            "text": "అప్పుడు   ఆ   'సిద్రా'ను   ఆవరించే   వస్తువేదో   ఆవరిస్తూ   ఉన్నది."
        },{
            "transName": "అహ్సనుల్ బయాన్",
            "index": "17",
            "text": "(అతని)   చూపు   తప్పిపోనూ   లేదు,   హద్దు   దాటిపోనూ   లేదు."
        },{
            "transName": "అహ్సనుల్ బయాన్",
            "index": "18",
            "text": "నిస్సందేహంగా   అతను   తన   ప్రభువు   యొక్క   గొప్ప   సూచనలు   (కొన్నింటిని)   తిలకించాడు."
        },{
            "transName": "అహ్సనుల్ బయాన్",
            "index": "19",
            "text": "ఏమిటీ,   మీరు   లాతు,   ఉజ్జాలను   గాని   చూశారా?"
        },{
            "transName": "అహ్సనుల్ బయాన్",
            "index": "20",
            "text": "మూడవది,   చివరిది   అయిన   మనాతును   (కూడా   చూశారా?)"
        },{
            "transName": "అహ్సనుల్ బయాన్",
            "index": "21",
            "text": "ఏమిటేమిటి!?   మీ   కోసమేమో   మగపిల్లలూను,   ఆయన   కోసమేమో   ఆడపిల్లలా?"
        },{
            "transName": "అహ్సనుల్ బయాన్",
            "index": "22",
            "text": "ఈ   విభజన   మరీ   ఘోరమైనది   (కదూ!)."
        },{
            "transName": "అహ్సనుల్ బయాన్",
            "index": "23",
            "text": "నిజానికి   ఇవన్నీ   మీరూ,   మీ   తాత   ముత్తాతలు   వాటికి   పెట్టు   కున్న   పేర్లు   మాత్రమే.   వీటిని   గురించి   అల్లాహ్‌   ఏ   ప్రమాణమూ   పంపలేదు.   వీళ్లు   కేవలం   అంచనాలను,   తమ   మనో   వాంఛలను   అనుసరిస్తున్నారు.   మరి   చూడబోతే   వారి   ప్రభువు   తరఫున   వారి   వద్దకు   ఖచ్చితంగా   మార్గదర్శకత్వం   వచ్చి   ఉన్నది."
        },{
            "transName": "అహ్సనుల్ బయాన్",
            "index": "24",
            "text": "ఏమిటీ,   మనిషి   కోరుకున్నదల్లా   అతనికి   ప్రాప్తిస్తుందా?"
        },{
            "transName": "అహ్సనుల్ బయాన్",
            "index": "25",
            "text": "ఇహలోకమూ,   పరలోకమూ   అల్లాహ్‌   అధీనంలో   మాత్రమే   ఉన్నాయి."
        },{
            "transName": "అహ్సనుల్ బయాన్",
            "index": "26",
            "text": "ఆకాశాలలో   ఎంతోమంది   దైవదూతలు   ఉన్నారు.   కాని   వాళ్ళ   సిఫారసు   ఏ   మాత్రం   పనికిరాదు.   కాకపోతే   అల్లాహ్‌   తన   ఇష్టంతో,   తాను   కోరిన   వారి   విషయంలో   (సిఫారసు   వినడానికి)   సమ్మతిస్తే   అది   వేరే   విషయం."
        },{
            "transName": "అహ్సనుల్ బయాన్",
            "index": "27",
            "text": "పరలోకాన్ని   విశ్వసించనివారు   దైవదూతలకు   ఆడవారి   పేర్లు   పెడతారు."
        },{
            "transName": "అహ్సనుల్ బయాన్",
            "index": "28",
            "text": "వాస్తవానికి   వారికి   ఈ   విషయంలో   ఎలాంటి   పరిజ్ఞానమూ   లేదు.   వారు   ఉత్త   అనుమానాలను   అనుసరిస్తున్నారు.   నిజానికి   (మూఢ)   అనుమానాలు   సత్యం   ముందు   దేనికీ   పనికిరావు."
        },{
            "transName": "అహ్సనుల్ బయాన్",
            "index": "29",
            "text": "కనుక   (ఓ   ప్రవక్తా!)   మా   ధ్యానం   నుండి   తిరిగిపోయి,   కేవలం   ప్రాపంచిక   జీవితాన్ని   మాత్రమే   ఆశించేవాణ్ణి   నువ్వు   పట్టించుకోకు."
        },{
            "transName": "అహ్సనుల్ బయాన్",
            "index": "30",
            "text": "వారికి   తెలిసింది   అంతవరకే.   తన   మార్గం   నుండి   తప్పి   పోయిన   వాడెవడో   నీ   ప్రభువుకు   బాగా   తెలుసు.   సన్మార్గం   పొందిన   వాని   గురించి   కూడా   ఆయనకు   బాగా   తెలుసు."
        },{
            "transName": "అహ్సనుల్ బయాన్",
            "index": "31",
            "text": "భూమ్యాకాశాలలో   ఉన్నదంతా   అల్లాహ్‌దే.   దుష్కర్మలు   చేసే   వారికి   అల్లాహ్‌   వారి   కర్మలకు   తగ్గ   ప్రతిఫలం   ఇవ్వటానికి,   సత్కర్మలు   చేసేవారికి   వారి   కర్మలకు   తగ్గట్టుగా   పుణ్యఫలం   ప్రసా   దించటానికి   (సన్మార్గ   దుర్మార్గాలు   ఆయన   చేతుల్లోనే   ఉన్నాయి)."
        },{
            "transName": "అహ్సనుల్ బయాన్",
            "index": "32",
            "text": "ఎవరయితే   పెద్ద   పాపాలకు   దూరంగా   ఉంటారో,   చిన్న   చిన్న   తప్పులు   మినహా   నీతిబాహ్యతను   కూడా   విడనాడతారో   (వారి   పాలిట)   నిశ్చయంగా   నీ   ప్రభువు   ఎంతో   ఉదారంగా   క్షమించే   వాడు.   ఆయన   మిమ్మల్ని   భూమి   (మట్టి)   నుండి   సృజించినప్పుడూ,   మీరు   మీ   మాతృగర్భాలలో   శిశువులుగా   ఉన్నప్పుడు   కూడా   మీ   గురించి   ఆయనకు   బాగా   ఎరుకే.   కాబట్టి   మీ   పారిశుద్ధ్యాన్ని   గురించి   మీరు   (గొప్పలు)   చెప్పుకోకండి.   దైవానికి   భయపడే   వాడెవడో   ఆయనకు   బాగా   తెలుసు."
        },{
            "transName": "అహ్సనుల్ బయాన్",
            "index": "33",
            "text": "సరేగాని   (ఓ   ప్రవక్తా!   దైవమార్గం   నుండి)   ముఖం   త్రిప్పు   కున్నవాణ్ణి   నువ్వు   గమనించావా?"
        },{
            "transName": "అహ్సనుల్ బయాన్",
            "index": "34",
            "text": "అతడు   కాస్తంత   ఇచ్చాడు.   తర్వాత   ఆపేశాడు."
        },{
            "transName": "అహ్సనుల్ బయాన్",
            "index": "35",
            "text": "వాడి   దగ్గర   రహస్య   జ్ఞానంగాని   ఉందా?   వాడు   అన్నీ   చూస్తూ   ఉన్నాడా?"
        },{
            "transName": "అహ్సనుల్ బయాన్",
            "index": "36",
            "text": "ఏమిటీ,   మూసా   గ్రంథ   ప్రతుల్లో   గల   విషయం   గురించి   వాడికి   సమాచారం   ఇవ్వబడలేదా?"
        },{
            "transName": "అహ్సనుల్ బయాన్",
            "index": "37",
            "text": "(అలాగే)   విశ్వాసపాత్రుడైన   ఇబ్రాహీము   గ్రంథ   ప్రతుల్లోని   విషయం   గురించి."
        },{
            "transName": "అహ్సనుల్ బయాన్",
            "index": "38",
            "text": "(ఆ   విషయం   ఏమిటంటే)   బరువును   మోసేవాడెవడూ   ఇంకొకరి   బరువును   మోయడు."
        },{
            "transName": "అహ్సనుల్ బయాన్",
            "index": "39",
            "text": "ప్రతి   మనిషీ   దేనికోసం   పాటుపడతాడో   అది   మాత్రమే   అతనికి   లభిస్తుంది."
        },{
            "transName": "అహ్సనుల్ బయాన్",
            "index": "40",
            "text": "నిశ్చయంగా   అతని   కృషి   త్వరలోనే   చూడబడుతుంది."
        },{
            "transName": "అహ్సనుల్ బయాన్",
            "index": "41",
            "text": "మరి   అతనికి   సంపూర్ణ   ప్రతిఫలం   వొసగబడుతుంది."
        },{
            "transName": "అహ్సనుల్ బయాన్",
            "index": "42",
            "text": "కడకు   అందరూ   పోయి   చేరవలసింది   నీ   ప్రభువు   వద్దకే."
        },{
            "transName": "అహ్సనుల్ బయాన్",
            "index": "43",
            "text": "మరి   ఆయనే   నవ్విస్తున్నాడు,   ఆయనే   ఏడిపిస్తున్నాడు."
        },{
            "transName": "అహ్సనుల్ బయాన్",
            "index": "44",
            "text": "మరి   ఆయనే   చంపుతున్నాడు,   ఆయనే   బ్రతికిస్తున్నాడు."
        },{
            "transName": "అహ్సనుల్ బయాన్",
            "index": "45",
            "text": "మరి   ఆయనే   జంటలను   -   అంటే   ఆడ   మగలను   -   సృజిం   చాడు."
        },{
            "transName": "అహ్సనుల్ బయాన్",
            "index": "46",
            "text": "(గర్భంలో)   కార్చబడినప్పటి   వీర్యపు   బిందువుతో!"
        },{
            "transName": "అహ్సనుల్ బయాన్",
            "index": "47",
            "text": "మలిసారి   బ్రతికించి   లేపే   బాధ్యత   కూడా   ఆయనదే."
        },{
            "transName": "అహ్సనుల్ బయాన్",
            "index": "48",
            "text": "మరి   ఆయనే   ధనవంతులుగా   చేస్తున్నాడు.   మూలధనాన్ని   కూడా   ప్రసాదిస్తున్నాడు."
        },{
            "transName": "అహ్సనుల్ బయాన్",
            "index": "49",
            "text": "షీరా   (నక్షత్రము)   కు   ప్రభువు   కూడా   ఆయనే."
        },{
            "transName": "అహ్సనుల్ బయాన్",
            "index": "50",
            "text": "ప్రాచీన   ఆదు   వారిని   అంతమొందించింది   కూడా   ఆయనే."
        },{
            "transName": "అహ్సనుల్ బయాన్",
            "index": "51",
            "text": "సమూదు   వారిని   కూడా   -   ఒక్కర్నీ   మిగల్చకుండా   (తుద   ముట్టించినవాడూ   ఆయనే)!"
        },{
            "transName": "అహ్సనుల్ బయాన్",
            "index": "52",
            "text": "అంతకు   మునుపు   నూహు   జాతివారిని   (ఆయనే   తుడిచి   పెట్టాడు).   నిశ్చయంగా   వారు   పరమ   దుర్మార్గులు,   తలబిరుసులు."
        },{
            "transName": "అహ్సనుల్ బయాన్",
            "index": "53",
            "text": "తలక్రిందులుగా   చేయబడిన   బస్తీలను   ఆయనే   అమాంతం   ఎత్తి   పడవేశాడు."
        },{
            "transName": "అహ్సనుల్ బయాన్",
            "index": "54",
            "text": "మరి   ఆ   బస్తీలపై   క్రమ్ముకున్నదేదో   వచ్చి   క్రమ్ముకుంది."
        },{
            "transName": "అహ్సనుల్ బయాన్",
            "index": "55",
            "text": "కనుక   (ఓ   మనిషీ!)   నువ్వు   నీ   ప్రభువు   అనుగ్రహాలలో   దేనిపై   గొడవపడగలవు?"
        },{
            "transName": "అహ్సనుల్ బయాన్",
            "index": "56",
            "text": "ఈయన   పూర్వం   హెచ్చరించిన   ప్రవక్తల   మాదిరిగానే   హెచ్చ   రించే   ప్రవక్త."
        },{
            "transName": "అహ్సనుల్ బయాన్",
            "index": "57",
            "text": "రానున్న   గడియ   దగ్గరపడింది."
        },{
            "transName": "అహ్సనుల్ బయాన్",
            "index": "58",
            "text": "అల్లాహ్‌   తప్ప   దాన్ని   (ఆ   నిర్ణీతసమయాన)   స్పష్టంగా   చూపించే   వాడెవడూ   లేడు."
        },{
            "transName": "అహ్సనుల్ బయాన్",
            "index": "59",
            "text": "ఏమిటీ,   మీరు   ఈ   విషయంపై   ఆశ్చర్యపోతున్నారా?"
        },{
            "transName": "అహ్సనుల్ బయాన్",
            "index": "60",
            "text": "నవ్విపోతున్నారా?   ఏడుపు   రావటంలేదా?"
        },{
            "transName": "అహ్సనుల్ బయాన్",
            "index": "61",
            "text": "పైపెచ్చు   ఆటపాటల్లో   నిర్లక్ష్యంగా   ఉంటున్నారు."
        },{
            "transName": "అహ్సనుల్ బయాన్",
            "index": "62",
            "text": "అల్లాహ్‌   సన్నిధిలో   సాష్టాంగపడండి.   (ఆయన్నే)   ఆరాధిం   చండి."
        }]
}