{
    "index": "60",
    "name": "Mumtahinah",
    "aya": [{
            "transName": "అహ్సనుల్ బయాన్",
            "index": "1",
            "text": "విశ్వసించిన   ఓ   ప్రజలారా!   నా   శత్రువుల్ని,   మీ   శత్రువుల్ని   మీ   స్నేహితులుగా   చేసుకోకండి.   మీరేమో   స్నేహపూర్వకంగా   వారివైపు   సందేశం   పంపుతున్నారు.   వారేమో   మీ   వద్దకు   వచ్చిన   సత్యాన్ని   త్రోసిపుచ్చారు.   మీ   ప్రభువైన   అల్లాహ్‌ను   మీరు   విశ్వసించి   నందుకు   వారు   ప్రవక్తను,   స్వయంగా   మిమ్మల్ని   కూడా   దేశంనుండి   బహిష్కరించారు.   మీరు   గనక   నా   మార్గంలో   పోరాడటానికి,   నా   ప్రసన్నతను   చూరగొనటానికి   బయలుదేరినవారైతే   (మీరు   వాళ్లతో   స్నేహం   చేయకండి).   మీరు   వారి   వద్దకు   స్నేహ   సందేశాన్ని   రహస్యంగా   పంపిస్తారా!   మీరు   దాచేదీ,   బహిర్గతం   చేసేది-   అంతా   నాకు   తెలుసు.   మీలో   ఎవడు   ఈ   కార్యకలాపాలకు   పాల్పడినా   అతను   తిన్నని   మార్గం   నుండి   తప్పిపోయినట్లే."
        },{
            "transName": "అహ్సనుల్ బయాన్",
            "index": "2",
            "text": "ఒకవేళ   మీరు   గనక   వారి   చేతికి   చిక్కినట్లయితే,   వారు   మీ   పట్ల   బద్ధ   శత్రువులుగా   వ్యవహరిస్తారు.   చెడు   రీతిలో   మీపై   చేయి   చేసుకుంటారు,   నోరు   కూడా   పారేసుకుంటారు.   మీరు   (కూడా   వారిలాగే)   అవిశ్వాసానికి   పాల్పడాలని   కోరుకుంటారు."
        },{
            "transName": "అహ్సనుల్ బయాన్",
            "index": "3",
            "text": "మీ   రక్తసంబంధాలు,   బంధుత్వాలు,   మీ   బిడ్డలు   ప్రళయదినాన   మీకు   ఏవిధంగానూ   ఉపయోగపడరు.   అల్లాహ్‌   మీ   మధ్య   తీర్పు   చేసేస్తాడు.   మీరు   చేసే   పనులన్నిటినీ   అల్లాహ్‌   చూస్తూనే   ఉన్నాడు."
        },{
            "transName": "అహ్సనుల్ బయాన్",
            "index": "4",
            "text": "(ఓ   ముస్లిములారా!)   మీకు   ఇబ్రాహీములోనూ,   అతని   వెంట   నున్న   వారిలోనూ   అత్యుత్తమమైన   ఆదర్శం   ఉంది.   వారంతా   తమ   జాతి   వారితో   స్పష్టంగా   ఇలా   చెప్పేశారు:   'మీతోనూ,   అల్లాహ్‌ను   వదలి   మీరు   పూజించే   వారందరితోనూ   మాకెలాంటి   సంబంధం   లేదు.   మేము   మిమ్మల్ని   (మీ   మిథ్యా   విశ్వాసాలను)   తిరస్కరిస్తు   న్నాము.   ఒకే   ఒక్కడైన   అల్లాహ్‌ను   మీరు   విశ్వసించనంతవరకూ   మాకూ   -   మీకూ   మధ్య   శాశ్వతంగా   విరోధం,   వైషమ్యం   ఏర్పడి   నట్లే.'   అయితే   ఇబ్రాహీము   తన   తండ్రితో,   '(నాన్నా!)   నేను   మీ   మన్నింపు   కోసం   తప్పకుండా   ప్రార్థిస్తాను.   (కాని)   మీ   విషయంలో   నేను   అల్లాహ్‌   సమక్షంలో   అంతకంటే   ఎక్కువ   ఏమీ   చేయలేను'   అన్న   మాట   మాత్రం   (వినాయింపుతో   కూడుకున్నది)   -   (ఇంకా   వారిలా   వేడుకున్నారు:)   'మా   ప్రభూ!   మేము   నిన్నే   నమ్ముకున్నాము.   నీ   వైపుకే   మరలుతున్నాము.   (ఎట్టకేలకు)   నిన్నే   చేరుకోవలసి   ఉంది."
        },{
            "transName": "అహ్సనుల్ బయాన్",
            "index": "5",
            "text": "'మా   ప్రభూ!   అవిశ్వాసుల   కొరకు   మమ్మల్ని   పరీక్షా   సాధనంగా   చేయకు.   ప్రభూ!   మా   తప్పులను   క్షమించు.   నిశ్చయంగా   నీవు   మాత్రమే   సర్వాధికుడవు,   వివేకవంతుడవు.'"
        },{
            "transName": "అహ్సనుల్ బయాన్",
            "index": "6",
            "text": "నిశ్చయంగా   వారి   (జీవన   విధానం)లో   మీకు   అత్యుత్తమ   మైన   ఆదర్శం   ఉంది   -   ముఖ్యంగా   అల్లాహ్‌(తో   సమావేశము)ను,   అంతిమదినాన్ని   ఆశించే   ప్రతి   ఒక్కరికీ!   ఒకవేళ   ఎవరయినా   విముఖత   చూపితే   (నష్టపోయేది   వారే),   అల్లాహ్‌   మాత్రం   లక్ష్య   పెట్టేవాడు   కాడు.   ఆయన   సకల   స్తోత్రాలకు   అర్హుడు."
        },{
            "transName": "అహ్సనుల్ బయాన్",
            "index": "7",
            "text": "బహుశా   అల్లాహ్‌   మీకూ   -   మీ   విరోధులకు   మధ్య   స్నేహాన్ని   ఏర్పరచినా   ఆశ్చర్యపోనవసరంలేదు.   అల్లాహ్‌కు   అన్నీ   సాధ్యమే.   అల్లాహ్‌   (అపారంగా)   క్షమించేవాడు,   కనికరించేవాడు."
        },{
            "transName": "అహ్సనుల్ బయాన్",
            "index": "8",
            "text": "ధర్మం   విషయంలో   మీపై   కాలుదువ్వకుండా,   మిమ్మల్ని   మీ   ఇల్లూ   వాకిలి   నుండి   వెళ్లగొట్టకుండా   ఉన్న   వారితో   మీరు   సద్వ్యవహారం   చేయటాన్ని,   వారికి   న్యాయం   చేయటాన్ని   అల్లాహ్‌   ఎంత   మాత్రం   నిరోధించడు.   పైగా   అల్లాహ్‌   న్యాయం   చేసే   వారిని   ప్రేమిస్తాడు."
        },{
            "transName": "అహ్సనుల్ బయాన్",
            "index": "9",
            "text": "ధర్మం   విషయంలో   మీపై   కయ్యానికి   కాలుదువ్వి,   మిమ్మల్ని   మీ   ఇల్లూ   వాకిళ్ళనుండి   వెళ్లగొట్టినవారితో,   మిమ్మల్ని   వెళ్లగొట్ట   డంలో   ఇతరులకు   సహాయపడిన   వారితో   స్నేహసంబంధాలు   ఏర్పరచుకోవటాన్ని   మాత్రమే   అల్లాహ్‌   వారిస్తున్నాడు.   అలాంటి   వారితో   కుమ్మక్కు   అయినవారే   దుర్మార్గులు."
        },{
            "transName": "అహ్సనుల్ బయాన్",
            "index": "10",
            "text": "ఓ   విశ్వాసులారా!   విశ్వసించిన   స్త్రీలు   మీవద్దకు   వలస   వచ్చి   నప్పుడు   మీరు   వారిని   పరీక్షించండి.(ఆ   విషయానికి   వస్తే)   వారి   విశ్వాసం   గురించి   అల్లాహ్‌కు   బాగా   తెలుసు.   వారు   గనక   విశ్వాసపాత్రులని   మీకు   అనిపిస్తే   వారిని   అవిశ్వాసుల   వద్దకు   తిప్పి   పంపకండి.   ఈ   స్త్రీలు   వారికి   ధర్మసమ్మతం   కారు.   వారు   ఈ   స్త్రీలకు   కూడా   ధర్మసమ్మతం   కాజాలరు.   అవిశ్వాసులు   ఖర్చుచేసినది   వారికి   చెల్లించండి.   ఆ   తర్వాత   మీరు   ఈ   స్త్రీలకు   మహర్‌   సొమ్మును   చెల్లించి   వారిని   వివాహమాడటం   ఏమాత్రం   దోషం   కాదు.   విశ్వసించని   స్త్రీల   మానాన్ని   మీ   వివాహ   బంధంలో   ఉంచకండి.   మీరు   ఖర్చుపెట్టినది   అడిగి   తీసేసు   కోండి.   అటు   అవిశ్వాసులు   కూడా   వారు   ఖర్చు   చేసినది   అడిగి   తీసేసుకోవాలి.   ఇది   అల్లాహ్‌   ఆజ్ఞ   (తీర్పు).   దీన్ని   ఆయన   మీ   మధ్య   విధించాడు.   అల్లాహ్‌   మహాజ్ఞాని,   మహావివేకి."
        },{
            "transName": "అహ్సనుల్ బయాన్",
            "index": "11",
            "text": "ఒకవేళ   మీ   భార్యలలో   ఎవరయినా   మీ   అదుపాజ్ఞలను   ఉల్లం   ఘించి   అవిశ్వాసుల   వద్దకు   చేరితే,   ఆ   తరువాత   బదులు   తీర్చు   కునే   వంతు   మీకు   వస్తే,   ఎవరి   స్త్రీలు   వెళ్ళిపోయారో   వారికి,   వారు   ఖర్చుచేసినంత   సొమ్మును   చెల్లించండి.   మీరు   విశ్వసించినటు   వంటి   అల్లాహ్‌కు   భయపడుతూ   ఉండండి."
        },{
            "transName": "అహ్సనుల్ బయాన్",
            "index": "12",
            "text": "ఓ   ప్రవక్తా!   విశ్వసించిన   స్త్రీలు   నీవద్దకు   వచ్చి,   తాము   ఎవరినీ   అల్లాహ్‌కు   భాగస్వామ్యం   కల్పించబోము   అనీ,   దొంగతనం   చేయ   బోము   అనీ,   వ్యభిచారానికి   పాల్పడబోము   అనీ,   తమ   సంతానాన్ని   చంపబోము   అనీ,   తమ   కాళ్లు   చేతుల   మధ్య   నుండి   ఎలాంటి   అభాండాన్నీ   కల్పించబోము   అనీ,   ఏ   సత్కార్యంలోనూ   నీకు   అవిధేయత   చూపబోము   అని   ప్రమాణం   చేస్తే   నువ్వు   వారి   చేత   ప్రమాణం   చేయించు.   వారి   క్షమాపణ   కొరకు   అల్లాహ్‌ను   ప్రార్థించు.   నిశ్చయంగా   అల్లాహ్‌   క్షమాశీలి,   దయాశీలి."
        },{
            "transName": "అహ్సనుల్ బయాన్",
            "index": "13",
            "text": "ఓ   విశ్వాసులారా!   మీరు   అల్లాహ్‌   ఆగ్రహానికి   గురైనవారితో   స్నేహం   చేయకండి.   చచ్చి   సమాధుల్లో   పడివున్న   వారి   పట్ల   అవిశ్వాసులు   ఎలా   ఆశలు   వదులుకున్నారో   అలాగే   వారు   కూడా   పరలోకం   పట్ల   ఆశ   వదులుకున్నారు."
        }]
}