{
    "index": "65",
    "name": "Talaq",
    "aya": [{
            "transName": "అహ్సనుల్ బయాన్",
            "index": "1",
            "text": "ఓ   ప్రవక్తా!   (నీ   అనుచర   సమాజానికి   చెప్పు)   మీరు   మీ   స్త్రీలకు   విడాకులు   ఇస్తున్నప్పుడు   వారి   గడువు   (ఇద్దత్‌)   ప్రకారం   విడాకులివ్వండి.   'గడువు'   (రుతువు)ను   లెక్కిస్తూ   ఉండండి.   మీ   ప్రభువైన   అల్లాహ్‌కు   భయపడుతూ   ఉండండి.   మీరు   వారిని   వారి   ఇండ్ల   నుండి   గెంటివేయకండి,   వారు   సయితం   వెళ్ళి   పోకూడదు.   ఒకవేళ   వారు   బాహాటంగా   ఏదైనా   నీతిబాహ్యమైన   చేష్టకు   ఒడిగడితే   (అప్పుడు   వెళ్ళగొట్టవచ్చు).   ఇవి   అల్లాహ్‌   నిర్ధారించిన   హద్దులు.   ఎవరయితే   అల్లాహ్‌   విధించిన   హద్దులను   అతిక్రమిస్తాడో   అతడు   తన   స్వయానికే   అన్యాయం   చేసుకున్న   వాడవుతాడు.   నీకు   తెలీదు   -   బహుశా   అల్లాహ్‌   దీని   తరువాత   ఏదైనా   కొత్త   పరిస్థితిని   కల్పిస్తాడేమో!"
        },{
            "transName": "అహ్సనుల్ బయాన్",
            "index": "2",
            "text": "మరి   ఆ   స్త్రీలు   తమ   గడువు   (ఇద్దత్‌)కు   చేరుకున్నప్పుడు   వారిని   ఉత్తమ   రీతిలో   మీ   వివాహబంధంలోనయినా   ఉంచుకోండి.   లేదంటే   ఉత్తమరీతిలో   వారిని   వేర్పరచటమైనా   చేయండి.   మీలోని   న్యాయశీలురైన   ఇద్దరు   వ్యక్తుల్ని   సాక్షులుగా   పెట్టుకోండి.   అల్లాహ్‌   కొరకు   సరైన   సాక్ష్యాన్ని   నెలకొల్పండి.   అల్లాహ్‌ను,   అంతిమ   దినాన్ని   విశ్వసించేవానికి   ఇందు   మూలముగా   ఉపదేశించబడు   తోంది.   ఎవడయితే   అల్లాహ్‌కు   భయపడుతూ   మసలుకుంటాడో   అతనికి   అల్లాహ్‌   (ఈ   సంక్షోభం   నుండి)   బయటపడే   మార్గం   కల్పిస్తాడు."
        },{
            "transName": "అహ్సనుల్ బయాన్",
            "index": "3",
            "text": "అతను   ఊహించనయినాలేని   చోటు   నుండి   అతనికి   ఉపాధిని   సమకూరుస్తాడు.   అల్లాహ్‌పై   భారం   మోపిన   వానికి   అల్లాహ్‌యే   చాలు.   అల్లాహ్‌   తన   కార్యాన్ని   చేసి   తీరుతాడు.   అల్లాహ్‌   ప్రతి   విషయానికీ   ఒక   లెక్కను   నిర్ధారించాడు."
        },{
            "transName": "అహ్సనుల్ బయాన్",
            "index": "4",
            "text": "మీ   స్త్రీలలో   ముట్టుపై   ఆశ   వదులుకున్నవారి   విషయంలో   మీకే   దైనా   సందేహముంటే,   వారి   గడువు   మూడు   నెలలు.   రజస్వల   (రుతుస్రావం   మొదలు)   కాని   వారి   గడువు   కూడా   అంతే.   గర్భవతుల   గడువు   వారి   ప్రసవం   అయ్యేవరకూ   ఉంటుంది.   ఎవడు   అల్లాహ్‌కు   భయపడతాడో   అతనికి   అల్లాహ్‌   అతని   వ్యవహా   రంలో   అన్ని   విధాలా   సౌలభ్యం   కల్పిస్తాడు."
        },{
            "transName": "అహ్సనుల్ బయాన్",
            "index": "5",
            "text": "ఇది   అల్లాహ్‌   ఆజ్ఞ.   దీన్ని   ఆయన   మీ   వైపు   అవతరింపజేశాడు.   ఎవడు   అల్లాహ్‌కు   భయపడతాడో   అతని   పాపాలను   అల్లాహ్‌   అతని   నుండి   రూపుమాపుతాడు.   అతనికి   గొప్ప   పుణ్యఫలాన్ని   వొసగుతాడు."
        },{
            "transName": "అహ్సనుల్ బయాన్",
            "index": "6",
            "text": "మీ   స్థోమత   మేరకు   మీరు   ఉండే   చోటే   (విడాకులు   పొందిన)   ఆ   మహిళలను   కూడా   ఉండనివ్వండి.   వారిని   ఇబ్బందులపాలు   చేసే   ఉద్దేశంతో   బాధించకండి.   ఒకవేళ   వారు   గర్భవతులై   ఉంటే,   వారు   శిశువును   కనేవరకూ   వారికి   ఖర్చులు   ఇస్తూ   ఉండండి.   ఆ   తరువాత   వారు-మీ   అభ్యర్థనపై   -   బిడ్డకు   పాలిచ్చి   నట్లయితే   వారికి   వారి   ప్రతిఫలాన్ని   ముట్టజెప్పండి.   ధర్మాను   సారం   పరస్పరం   సంప్రతించుకోండి.   ఒకవేళ   మీరు   పరస్పరం   గొడవపడినట్లయితే   అతని   కోరికపై   మరొకామె   బిడ్డకు   పాలుపడు   తుంది."
        },{
            "transName": "అహ్సనుల్ బయాన్",
            "index": "7",
            "text": "స్థోమత   ఉన్నవాడు   తన   స్థోమతకు   తగ్గట్టుగా   ఖర్చుచేయాలి.   మరెవరికయితే   అతని   ఉపాధి   కుదించబడిందో,   అతను   అల్లాహ్‌   తనకు   ప్రసాదించిన   దానిలో   నుంచి   (తన   స్థాయికి   తగ్గట్టుగానే)   ఖర్చు   పెట్టాలి.   అల్లాహ్‌   ఏ   ప్రాణిపైనా   దానికి   ఇచ్చిన   దానికంటే   ఎక్కువ   భారం   మోపడు.   అల్లాహ్‌   ఇబ్బందుల   తరువాత   సౌలభ్యాన్ని   కూడా   కల్పిస్తాడు."
        },{
            "transName": "అహ్సనుల్ బయాన్",
            "index": "8",
            "text": "ఎన్నో   జనపదాలవారు   తమ   ప్రభువు   ఆజ్ఞ   పట్ల,   ఆయన   ప్రవక్తల   పట్ల   తిరుగుబాటు   ధోరణిని   అవలంబించిన   కారణంగా   మేము   కూడా   వారి   నుండి   కఠినంగా   లెక్క   తీసుకున్నాము.   కానరాని   రీతిలో   వారిని   దెబ్బతీశాము."
        },{
            "transName": "అహ్సనుల్ బయాన్",
            "index": "9",
            "text": "అంతే!   వారు   తమ   కర్మల   దుష్ఫలితాన్ని   చవిచూశారు.   చివరకు   వారికి   మిగిలింది   తీవ్రనష్టమే."
        },{
            "transName": "అహ్సనుల్ బయాన్",
            "index": "10",
            "text": "వారి   కోసం   అల్లాహ్‌   కఠినమైన   శిక్షను   సిద్ధపరచి   ఉంచాడు.   కనుక   విశ్వసించిన   ఓ   విజ్ఞులారా!   అల్లాహ్‌కు   భయపడండి.   నిశ్చయంగా   అల్లాహ్‌   మీ   వైపు   హితబోధను   పంపాడు."
        },{
            "transName": "అహ్సనుల్ బయాన్",
            "index": "11",
            "text": "(అనగా)   అల్లాహ్‌   యొక్క   స్పష్టమైన   వాక్యాలను   (ఆదేశాలను)   చదివి   వినిపించి,   విశ్వసించి   సత్కార్యాలు   చేసిన   వారిని   ఆయన   కారుచీకట్లలో   నుండి   వెలుగులోనికి   తీసుకువచ్చేందుకు   ఒక   ప్రవక్తను   పంపాడు.   మరెవరయితే   అల్లాహ్‌ను   విశ్వసించి   సదా   చరణ   చేస్తారో   వారిని   అల్లాహ్‌   క్రింద   కాలువలు   ప్రవహించే   (స్వర్గ)   వనాలలో   ప్రవేశింపజేస్తాడు.   వాటిలో   వారు   కలకాలం   ఉంటారు.   నిశ్చయంగా   అల్లాహ్‌   అతనికి   అత్యుత్తమమయిన   ఉపాధిని   వొసగాడు."
        },{
            "transName": "అహ్సనుల్ బయాన్",
            "index": "12",
            "text": "అల్లాహ్‌-ఆయనే   సప్తాకాశాలనూ,   అలాంటివే   భూములను   సృష్టించినవాడు.   ఆయన   ఆజ్ఞ   వాటి   మధ్య   అవతరిస్తుంది-   అల్లాహ్‌   అన్నింటిపై   అధికారం   కలిగి   ఉన్నాడనీ,   ఇంకా   అల్లాహ్‌   తన   జ్ఞానంతో   అన్నింటినీ   పరివేష్ఠించి   ఉన్నాడని   మీరు   తెలుసుకో   వటానికి."
        }]
}