{
    "index": "90",
    "name": "Balad",
    "aya": [{
            "transName": "అహ్సనుల్ బయాన్",
            "index": "1",
            "text": "ఈ   నగరం   తోడుగా   (నేను   చెబుతున్నాను)!"
        },{
            "transName": "అహ్సనుల్ బయాన్",
            "index": "2",
            "text": "(ఓ   ముహమ్మద్‌   -సఅసం)   !   నువ్వు   ఈ   నగరంలో   స్వేచ్ఛా   వాసివి."
        },{
            "transName": "అహ్సనుల్ బయాన్",
            "index": "3",
            "text": "కన్న   తండ్రి   (తోడుగా),   అతను   కన్న   సంతానం   (తోడుగా   చెబుతున్నాను)."
        },{
            "transName": "అహ్సనుల్ బయాన్",
            "index": "4",
            "text": "నిశ్చయంగా   మేము   మనిషిని   నిత్య   కష్టాల్లో   సృష్టించాము."
        },{
            "transName": "అహ్సనుల్ బయాన్",
            "index": "5",
            "text": "ఏమిటి,   తనపై   ఎవరి   అదుపూ,   అజమాయిషీ   లేదని   అతను   అనుకుంటున్నాడా?"
        },{
            "transName": "అహ్సనుల్ బయాన్",
            "index": "6",
            "text": "''నేను   రాసులకొద్దీ   ధనాన్ని   ఖర్చుపెట్టాను   తెలుసా!''   అని   అతను   (గొప్పలు)   చెప్పుకుంటున్నాడు."
        },{
            "transName": "అహ్సనుల్ బయాన్",
            "index": "7",
            "text": "ఏమిటి,   తననెవరూ   చూడలేదని   అతను   తలపోస్తున్నాడా?"
        },{
            "transName": "అహ్సనుల్ బయాన్",
            "index": "8",
            "text": "ఏమిటి,   మేమతనికి   రెండు   కళ్లను   సృజించలేదా?"
        },{
            "transName": "అహ్సనుల్ బయాన్",
            "index": "9",
            "text": "ఒక   నాలుకను,   రెండు   పెదవులను   (చేయలేదా)?"
        },{
            "transName": "అహ్సనుల్ బయాన్",
            "index": "10",
            "text": "మరి   మేమతనికి   రెండు   మార్గాలు   కూడా   చూపాము."
        },{
            "transName": "అహ్సనుల్ బయాన్",
            "index": "11",
            "text": "కాని   అతను   కఠినమైన   కనుమను   దాటిపోలేదు."
        },{
            "transName": "అహ్సనుల్ బయాన్",
            "index": "12",
            "text": "కఠినమైన   కనుమ   అంటే   ఏమిటో   నీకు   తెలుసా?"
        },{
            "transName": "అహ్సనుల్ బయాన్",
            "index": "13",
            "text": "ఏ   (బానిస   లేక   బానిసరాలి)   మెడనయినా   (బానిసత్వం   నుండి)   విడిపించటం."
        },{
            "transName": "అహ్సనుల్ బయాన్",
            "index": "14",
            "text": "లేదా   ఆకలిగొన్న   నాడు   అన్నం   పెట్టడం   -"
        },{
            "transName": "అహ్సనుల్ బయాన్",
            "index": "15",
            "text": "బంధుత్వంగల   ఏ   అనాధకు   గాని,"
        },{
            "transName": "అహ్సనుల్ బయాన్",
            "index": "16",
            "text": "మట్టిలో   పడివున్న   ఏ   నిరుపేదకు   గానీ   (అన్నం   పెట్టడం)!"
        },{
            "transName": "అహ్సనుల్ బయాన్",
            "index": "17",
            "text": "అటుపిమ్మట,   విశ్వసించి   పరస్పరం   సహనబోధ   చేసు   కుంటూ,   ఒండొకరికి   దయాదాక్షిణ్యాల   గురించి   తాకీదు   చేసు   కునేవారైపోవాలి."
        },{
            "transName": "అహ్సనుల్ బయాన్",
            "index": "18",
            "text": "వీళ్ళే   కుడిపక్షం   వారు   (భాగ్యవంతులు)."
        },{
            "transName": "అహ్సనుల్ బయాన్",
            "index": "19",
            "text": "మరెవరయితే   మా   ఆయతుల   పట్ల   తిరస్కార   వైఖరిని   అవలం   బించారో   వారు   దౌర్భాగ్యులు."
        },{
            "transName": "అహ్సనుల్ బయాన్",
            "index": "20",
            "text": "వారిని   (అన్ని   వైపుల   నుంచి)   అగ్ని   చుట్టుముట్టుతుంది."
        }]
}