{
    "name": "الفاتحة",
    "aya": [
        {
            "index": "1",
            "transName": "Fred Leemhuis",
            "text": "In de naam van God, de erbarmer, de barmhartige."
        },
        {
            "index": "2",
            "transName": "Fred Leemhuis",
            "text": "Lof zij God, de Heer van de wereldbewoners,"
        },
        {
            "index": "3",
            "transName": "Fred Leemhuis",
            "text": "de erbarmer, de barmhartige,"
        },
        {
            "index": "4",
            "transName": "Fred Leemhuis",
            "text": "de heerser op de oordeelsdag."
        },
        {
            "index": "5",
            "transName": "Fred Leemhuis",
            "text": "U dienen wij en U vragen wij om hulp."
        },
        {
            "index": "6",
            "transName": "Fred Leemhuis",
            "text": "Leid ons op de juiste weg,"
        },
        {
            "index": "7",
            "transName": "Fred Leemhuis",
            "text": "de weg van hen aan wie U genade geschonken hebt, op wie geen toorn rust en die niet dwalen."
        }
    ],
    "index": "1"
}