{
    "name": "الفاتحة",
    "aya": [
        {
            "transName": "Abubakar Mahmoud Gumi",
            "index": "1",
            "text": "Da sũnan Allah, Mai rahama, Mai jin ƙai."
        },
        {
            "transName": "Abubakar Mahmoud Gumi",
            "index": "2",
            "text": "Godiya ta tabbata ga Allah, Ubangijin halittu;"
        },
        {
            "transName": "Abubakar Mahmoud Gumi",
            "index": "3",
            "text": "Mai rahama, Mai jin ƙai;"
        },
        {
            "transName": "Abubakar Mahmoud Gumi",
            "index": "4",
            "text": "Mai nuna Mulkin Rãnar Sakamako."
        },
        {
            "transName": "Abubakar Mahmoud Gumi",
            "index": "5",
            "text": "Kai muke bauta wa, kuma Kai muke neman taimakonKa."
        },
        {
            "transName": "Abubakar Mahmoud Gumi",
            "index": "6",
            "text": "Ka shiryar da mu ga hanya madaidaiciya."
        },
        {
            "transName": "Abubakar Mahmoud Gumi",
            "index": "7",
            "text": "Hanyar waɗanda Ka yi wa ni'ima, ba waɗanda aka yi wa fushi ba, kuma ba ɓatattu ba."
        }
    ],
    "index": "1"
}