{
    "name": "الفاتحة",
    "aya": [
        {
            "transName": "Garcia",
            "index": "1",
            "text": "En el nombre de Dios, el Compasivo con toda la creación, el Misericordioso con los creyentes."
        },
        {
            "transName": "Garcia",
            "index": "2",
            "text": "Todas las alabanzas son para Dios, Señor de todo cuanto existe,"
        },
        {
            "transName": "Garcia",
            "index": "3",
            "text": "el Compasivo, el Misericordioso."
        },
        {
            "transName": "Garcia",
            "index": "4",
            "text": "Soberano absoluto del Día del Juicio Final,"
        },
        {
            "transName": "Garcia",
            "index": "5",
            "text": "solo a Ti te adoramos y solo de Ti imploramos ayuda."
        },
        {
            "transName": "Garcia",
            "index": "6",
            "text": "¡Guíanos por el camino recto!"
        },
        {
            "transName": "Garcia",
            "index": "7",
            "text": "El camino de los que has colmado con Tus favores, no el de los que cayeron en Tu ira, ni el de los que se extraviaron."
        }
    ],
    "index": "1"
}