{
    "name": "الفاتحة",
    "aya": [
        {
            "transName": "Suat Yıldırım",
            "index": "1",
            "text": "Rahmân ve rahîm olan Allah'ın adıyla [59,22-24]"
        },
        {
            "transName": "Suat Yıldırım",
            "index": "2",
            "text": "Bütün hamdler, övgüler âlemlerin Rabbi Allah'adır."
        },
        {
            "transName": "Suat Yıldırım",
            "index": "3",
            "text": "O rahmândır, rahîmdir."
        },
        {
            "transName": "Suat Yıldırım",
            "index": "4",
            "text": "Din gününün, hesap gününün tek hâkimidir. [24,25; 37,53]"
        },
        {
            "transName": "Suat Yıldırım",
            "index": "5",
            "text": "(Haydi öyleyse deyiniz): \u201cYalnız Sana ibadet eder, yalnız senden medet umarız.\u201d [73,9; 6,1; 3,64]"
        },
        {
            "transName": "Suat Yıldırım",
            "index": "6",
            "text": "Bizi doğru yola, Sana doğru varan yola ilet."
        },
        {
            "transName": "Suat Yıldırım",
            "index": "7",
            "text": "Nimet ve lütfuna nail ettiklerinin yoluna ilet. Gazaba uğrayanların ve sapkınlarınkine değil. [4,69]"
        }
    ],
    "index": "1"
}