{
    "name": "الفاتحة",
    "aya": [
        {
            "transName": "امروٽي",
            "index": "1",
            "text": "الله ٻاجھاري مھربان جي نالي سان (شروع)"
        },
        {
            "transName": "امروٽي",
            "index": "2",
            "text": "سڀ ساراھ (خاص) جھانن جي پالڻھار الله کي جڳائي."
        },
        {
            "transName": "امروٽي",
            "index": "3",
            "text": "(جو) ٻاجھارو مھربان."
        },
        {
            "transName": "امروٽي",
            "index": "4",
            "text": "قيامت جي ڏينھن جو مالڪ (آھي)."
        },
        {
            "transName": "امروٽي",
            "index": "5",
            "text": "تنھنجي ئي عبادت ڪيون ٿا ۽ تو کان ئي مدد گھرون ٿا."
        },
        {
            "transName": "امروٽي",
            "index": "6",
            "text": "اسان کي سڌي واٽ ڏيکار."
        },
        {
            "transName": "امروٽي",
            "index": "7",
            "text": "جا انھن جي واٽ آھي جن تي فضل ڪيو اٿئي، نه انھن جي (واٽ) جن تي (تنھنجو) ڏمر ٿيل آھي ۽ نه گمراھن جي (واٽ)."
        }
    ],
    "index": "1"
}