{
    "name": "الفاتحة",
    "aya": [
        {
            "transName": "مجتبوی",
            "index": "1",
            "text": "به نام خداى بخشاينده مهربان"
        },
        {
            "transName": "مجتبوی",
            "index": "2",
            "text": "سپاس و ستايش خداى راست، پروردگار جهانيان"
        },
        {
            "transName": "مجتبوی",
            "index": "3",
            "text": "آن بخشاينده مهربان"
        },
        {
            "transName": "مجتبوی",
            "index": "4",
            "text": "خداوند و فرمانرواى روز پاداش."
        },
        {
            "transName": "مجتبوی",
            "index": "5",
            "text": "تو را ميپرستيم و بس و از تو يارى ميخواهيم و بس."
        },
        {
            "transName": "مجتبوی",
            "index": "6",
            "text": "ما را به راه راست راه بنماى"
        },
        {
            "transName": "مجتبوی",
            "index": "7",
            "text": "راه كسانى كه به آنان نعمت دادى- نيكويى كردى- نه راه خشم\u200cگرفتگان بر آنها و نه راه گمراهان."
        }
    ],
    "index": "1"
}