{
    "name": "يوسف",
    "aya": [
        {
            "index": "1",
            "transName": "ሳዲቅ & ሳኒ ሐቢብ",
            "text": "አ.ለ.ረ (አሊፍ ላም ራ) እነዚህ የገላጩ መጽሐፍ አንቀጾች ናቸው፡፡"
        },
        {
            "index": "2",
            "transName": "ሳዲቅ & ሳኒ ሐቢብ",
            "text": "እኛ (ፍቹን) ታውቁ ዘንድ ዐረብኛ ቁርኣን ሲሆን በእርግጥ አወረድነው፡፡"
        },
        {
            "index": "3",
            "transName": "ሳዲቅ & ሳኒ ሐቢብ",
            "text": "እኛ ይህንን ቁርኣን ወደ አንተ በማውረዳችን በጣም መልካም ዜናዎችን በአንተ ላይ እንተርክልሃለን፡፡ እነሆ ከእርሱ በፊት (ካለፉት ሕዝቦች ታሪክ) በእርግጥ ከዘንጊዎቹ ነበርክ፡፡"
        },
        {
            "index": "4",
            "transName": "ሳዲቅ & ሳኒ ሐቢብ",
            "text": "ዩሱፍ ለአባቱ፡- «አባቴ ሆይ! እኔ ዐስራ አንድ ከዋክብትን ፀሐይንና ጨረቃንም (በሕልሜ) አየሁ፡፡ ለእኔ ሰጋጆች ሆነው አየኋቸው» ባለ ጊዜ (አስታውስ)፡፡"
        },
        {
            "index": "5",
            "transName": "ሳዲቅ & ሳኒ ሐቢብ",
            "text": "(አባቱም) አለ «ልጄ ሆይ! ሕልምህን ለወንድሞችህ አታውራ፡፡ ላንተ ተንኮልን ይሰሩብሃልና፡፡ ሰይጣን ለሰው ግልጽ ጠላት ነውና፡፡»"
        },
        {
            "index": "6",
            "transName": "ሳዲቅ & ሳኒ ሐቢብ",
            "text": "«እንደዚሁም (እንዳየኸው) ጌታህ ይመርጥሃል፡፡ ከንግግሮችም ፍች ያስተምርሃል፡፡ ጸጋውንም ከአሁን በፊት በሁለቱ አባቶችህ በኢብራሂምና በኢስሐቅ ላይ እንዳሟላት በአንተ ላይና በያዕቆብ ዘሮችም ላይ ይሞላታል፡፡ ጌታህ ዐዋቂ ጥበበኛ ነውና፡፡»"
        },
        {
            "index": "7",
            "transName": "ሳዲቅ & ሳኒ ሐቢብ",
            "text": "በዩሱፍና በወንድሞቹ (ታሪኮች) ውስጥ ለጠያቂዎች ሁሉ በእርግጥ አስደናቂ ምልክቶች ነበሩ፡፡"
        },
        {
            "index": "8",
            "transName": "ሳዲቅ & ሳኒ ሐቢብ",
            "text": "(ወንድሞቹ) ባሉ ጊዜ (አስታውስ)፡፡ «እኛ ጭፍሮች ስንሆን ዩሱፍና ወንድሙ (ብንያም) ወደ አባታችን ከእኛ ይበልጥ የተወደዱ ናቸው፡፡ አባታችን በግልጽ ስህተት ውስጥ ነው፡፡"
        },
        {
            "index": "9",
            "transName": "ሳዲቅ & ሳኒ ሐቢብ",
            "text": "«ዩሱፍን ግደሉ፡፡ ወይም በ(ሩቅ) ምድር ላይ ጣሉት፡፡ ያባታችሁ ፊት ለእናንተ የግል ይኾናልና፡፡ ከእርሱም በኋላ መልካም ሕዝቦች ትሆናላችሁና» (ተባባሉ)፡፡"
        },
        {
            "index": "10",
            "transName": "ሳዲቅ & ሳኒ ሐቢብ",
            "text": "ከእነሱ አንድ ተናጋሪ «ዩሱፍን አትግደሉ ግን በጉድጓድ አዘቅት ጨለማ ውስጥ ጣሉት፤ ከተጓዢዎች አንዱ ያነሳዋልና፡፡ ሠሪዎች ብትኾኑ (በዚሁ ተብቃቁ) አላቸው፡፡"
        },
        {
            "index": "11",
            "transName": "ሳዲቅ & ሳኒ ሐቢብ",
            "text": "(እነሱም) አሉ «አባታችን ሆይ! በዩሱፍ ላይ ለምን አታምነንም እኛም ለእርሱ በእርግጥ አዛኞች ነን፡፡»"
        },
        {
            "index": "12",
            "transName": "ሳዲቅ & ሳኒ ሐቢብ",
            "text": "«ነገ ከእኛ ጋር ላከውና ይደሰት፤ ይጫወትም፡፡ እኛም ለእርሱ ጠባቂዎች ነን፡፡»"
        },
        {
            "index": "13",
            "transName": "ሳዲቅ & ሳኒ ሐቢብ",
            "text": "«እኔ እርሱን (ዩሱፍን) ይዛችሁ መሌዳችሁ በእርግጥ ያሳዝነኛል፡፡ እናንተም ከእርሱ ዘንጊዎች ስትሆኑ ተኩላ ይበላዋል ብዬ እፈራለሁ» አላቸው፡፡"
        },
        {
            "index": "14",
            "transName": "ሳዲቅ & ሳኒ ሐቢብ",
            "text": "«እኛ ጭፍራዎች ሆነን ሳለን ተኩላ ቢበላውማ እኛ ያን ጊዜ በእርግጥ ከሳሪዎች ነን» አሉት፡፡"
        },
        {
            "index": "15",
            "transName": "ሳዲቅ & ሳኒ ሐቢብ",
            "text": "እርሱንም ይዘውት በሌዱና በጉድጓዱ ጨለማ አዘቅት ውስጥ እንዲያደርጉት በቆረጡ ጊዜ (ሐሳባቸውን ፈጸሙበት)፡፡ ወደእርሱም እነሱ የማያውቁ ሲሆኑ ይህንን ሥራቸውን በእርግጥ ትነግራቸዋለህ ስንል ላክንበት፡፡"
        },
        {
            "index": "16",
            "transName": "ሳዲቅ & ሳኒ ሐቢብ",
            "text": "አባታቸውንም በምሽት እያለቀሱ መጡት፡፡"
        },
        {
            "index": "17",
            "transName": "ሳዲቅ & ሳኒ ሐቢብ",
            "text": "«አባታችን ሆይ! እኛ (ለሩጫና ለውርወራ) ልንሽቀዳደም ሌድን፡፡ ዩሱፍንም ዕቃችን ዘንድ ተውነው፡፡ ወዲያውም ተኩላ በላው፡፡ አንተም እውነተኞች ብንሆንም የምታምነን አይደለህም» አሉ፡፡"
        },
        {
            "index": "18",
            "transName": "ሳዲቅ & ሳኒ ሐቢብ",
            "text": "በቀሚሱም ላይ የውሸትን ደም አመጡ፡፡ (አባታቸው) «አይደለም፤ ነፍሶቻችሁ (ውሸት) ነገርን ለእናንተ ሸለሙላችሁ፡፡ ስለዚህ መልካም ትዕግስት (ማድረግ አለብኝ) በምትሉትም ነገር ላይ መታገዣው አላህ ብቻ ነው» አለ፡፡"
        },
        {
            "index": "19",
            "transName": "ሳዲቅ & ሳኒ ሐቢብ",
            "text": "መንገደኞችም መጡ፡፡ ውሃ ቀጂያቸውንም ላኩ፡፡ አኮሊውንም (ወደ ጉድጓዱ) ሰደደ «የምስራች! ይህ ወጣት ልጅ ነው» አለ፡፡ ሸቀጥ አድርገውም ደበቁት፡፡ አላህም የሚሠሩትን ሁሉ ዐዋቂ ነው፡፡"
        },
        {
            "index": "20",
            "transName": "ሳዲቅ & ሳኒ ሐቢብ",
            "text": "በርካሽ ዋጋም በሚቆጠሩ ዲርሃሞች ሸጡት፡፡ በእርሱም ከቸልተኞቹ ነበሩ፡፡"
        },
        {
            "index": "21",
            "transName": "ሳዲቅ & ሳኒ ሐቢብ",
            "text": "ያም ከምስር የገዛው ሰው ለሚስቱ «መኖሪያውን አክብሪ፡፡ ሊጠቅመን ወይም ልጅ አድርገን ልንይዘው ይከጀላልና» አላት፡፡ እንደዚሁም ለዩሱፍ (ገዥ ልናደርገውና) የሕልሞችንም ፍች ልናስተምረው በምድር ላይ አስመቸነው፡፡ አላህም በነገሩ ላይ አሸናፊ ነው፤ ግን አብዛኛዎቹ ሰዎች አያውቁም፡፡"
        },
        {
            "index": "22",
            "transName": "ሳዲቅ & ሳኒ ሐቢብ",
            "text": "ጥንካሬውንም በደረሰ ጊዜ ጥበብንና ዕውቀትን ሰጠነው፡፡ እንደዚሁም መልካም ሠሪዎችን ሁሉ እንመነዳለን፡፡"
        },
        {
            "index": "23",
            "transName": "ሳዲቅ & ሳኒ ሐቢብ",
            "text": "ያቺም እርሱ በቤቷ የነበረባት ሴት ከነፍሱ አባበለችው፡፡ ደጃፎቹንም ዘጋች፤ «ላንተ ተዘጋጅቼልሃለሁና ቶሎ ናም» አለችው፡፡ «በአላህ እጠበቃለሁ እርሱ (የገዛኝ) ጌታዬ ኑሮዬን ያሳመረልኝ ነውና፤ (አልከዳውም)፡፡ እነሆ! በደለኞች አይድኑም» አላት፡፡"
        },
        {
            "index": "24",
            "transName": "ሳዲቅ & ሳኒ ሐቢብ",
            "text": "በእርሱም በእርግጥ አሰበች፡፡ በእርሷም አሰበ፤ የጌታውን ማስረጃ ባላየ ኖሮ (የተፈጥሮ ፍላጎቱን ባረካ ነበር፤)፡፡ እንደዚሁ መጥፎ ነገርንና ኀጢአትን ከእርሱ ላይ ልንመልስለት (አስረጃችንን አሳየነው)፡፡ እርሱ ከተመረጡት ባሮቻችን ነውና፡፡"
        },
        {
            "index": "25",
            "transName": "ሳዲቅ & ሳኒ ሐቢብ",
            "text": "በሩንም ተሽቀዳደሙ ቀሚሱንም ከበስተኋላው ቀደደችው፡፡ ጌታዋንም (ባለቤቷን) እበሩ አጠገብ አገኙት፡፡ (ቀደም ብላ) «በባለቤትህ መጥፎን ያሰበ ሰው ቅጣቱ መታሰር ወይም አሳማሚ ስቃይ እንጂ ሌላ አይደለም» አለችው፡፡"
        },
        {
            "index": "26",
            "transName": "ሳዲቅ & ሳኒ ሐቢብ",
            "text": "(ዩሱፍም) «እርሷ ከነፍሴ አባበለችኝ» አለ፡፡ ከቤተሰቦቿም መስካሪ (እንዲህ ሲል) መሰከረ፡፡ «ቀሚሱ ከበስተፊት ተቀድዶ እንደሆነ እውነት ተናገረች፡፡ እርሱም ከውሸታሞቹ ነው፡፡"
        },
        {
            "index": "27",
            "transName": "ሳዲቅ & ሳኒ ሐቢብ",
            "text": "«ቀሚሱም ከበስተኋላ ተቀድዶ እንደሆነ ዋሸች፡፡ እርሱም ከእውነተኞቹ ነው፡፡»"
        },
        {
            "index": "28",
            "transName": "ሳዲቅ & ሳኒ ሐቢብ",
            "text": "ቀሚሱንም ከበስተኋላ ተቀድዶ ባየ ጊዜ «እርሱ (የተናገርሺው) ከተንኮላችሁ ነው (ሴቶች) ተንኮላችሁ በእርግጥ ብርቱ ነውና» አላት፡፡"
        },
        {
            "index": "29",
            "transName": "ሳዲቅ & ሳኒ ሐቢብ",
            "text": "«ዩሱፍ ሆይ! ከዚህ (ወሬ) ተከልከል፡፡ ለኃጢአትሽም ማርታን ለምኚ፡፡ አንቺ ከስህተተኞቹ ሆነሻልና» (አለ)፡፡"
        },
        {
            "index": "30",
            "transName": "ሳዲቅ & ሳኒ ሐቢብ",
            "text": "በከተማው ያሉ ሴቶችም «የዐዚዝ ሚስት ብላቴናዋን ከነፍሱ ታባብለዋለች፡፡ በእውነቱ ፍቅሩ ልቧን መቷታል፡፡ እኛ በግልጽ ስህተት ውስጥ ሆና በእርግጥ እናያታለን» አሉ፡፡"
        },
        {
            "index": "31",
            "transName": "ሳዲቅ & ሳኒ ሐቢብ",
            "text": "ሀሜታቸውንም በሰማች ጊዜ ወደነሱ ላከችባቸው፡፡ ምግብንም ለእነርሱ አዘጋጀችላቸው፡፡ ከእነሱ ለያንዳንዳቸውም ቢላዋን ሰጠች፡፡ በእነሱም ላይ «ውጣ» አለችው፡፡ ባዩትም ጊዜ አደነቁት፡፡ እጆቻቸውንም ቆረጡ፡፡ አላህም ጥራት ይገባው፡፡ ይህ ሰው አይደለም፡፡ ይህ ያማረ መልአክ እንጅ ሌላ አይደለም አሉ፡፡"
        },
        {
            "index": "32",
            "transName": "ሳዲቅ & ሳኒ ሐቢብ",
            "text": "«ታዲያ ይህ ያ በርሱ (ፍቅር) የዘለፋችሁኝ ነው፡፡ በእርግጥም ከነፍሱ አባበልኩት፡፡ እምቢ አለም፡፡ የማዘውንም ነገር ባይሠራ በእርግጥ ይታሰራል፡፡ ከወራዶቹም ይሆናል» አለች፡፡"
        },
        {
            "index": "33",
            "transName": "ሳዲቅ & ሳኒ ሐቢብ",
            "text": "«ጌታዬ ሆይ! ወደርሱ ከሚጠሩኝ ነገር (ከዝሙት) ይልቅ መታሰር ለእኔ የተወደደ ነው፡፡ ተንኮላቸውንም ከእኔ ላይ ባትመልስልኝ ወደነሱ እዘነበላለሁ፡፡ ከስህተተኞቹም እሆናለሁ» አለ፡፡"
        },
        {
            "index": "34",
            "transName": "ሳዲቅ & ሳኒ ሐቢብ",
            "text": "ጌታውም ጸሎቱን ተቀበለው፡፡ ተንኮላቸውንም ከእርሱ መለሰለት፡፡ እነሆ! እርሱ ሰሚው ዐዋቂው ነውና፡፡"
        },
        {
            "index": "35",
            "transName": "ሳዲቅ & ሳኒ ሐቢብ",
            "text": "ከዚያም ማስረጃዎቹን ካዩ በኋላ እስከጊዜ ድረስ እንዲያስሩት ለነሱ ታያቸው፡፡"
        },
        {
            "index": "36",
            "transName": "ሳዲቅ & ሳኒ ሐቢብ",
            "text": "ከእሱም ጋር ሁለት ጎበዞች እስር ቤቱ ገቡ፡፡ አንደኛቸው «እኔ በህልሜ የወይን ጠጅን ስጠምቅ አየሁ» አለ፡፡ ሌላውም፡- «እኔ በራሴ ላይ እንጀራን ተሸክሜ ከእሱ በራሪ (አሞራ) ስትበላ አየሁ፡፡ ፍቹን ንገረን፡፡ እኛ ከአሳማሪዎች ሆነህ እናይሃለንና» አሉት፡፡"
        },
        {
            "index": "37",
            "transName": "ሳዲቅ & ሳኒ ሐቢብ",
            "text": "(ዩሱፍም) አለ፡- «ማንኛውም የምትስሰጡት ምግብ ለናንተ ከመምጣቱ በፊት ፍቹን የምነግራችሁ ቢሆን እንጂ አይመጣላችሁም፡፡ ይኸ ጌታዬ ካሳወቀኝ ነገር ነው፤ እኔ በአላህ የማያምኑን እነርሱም መጨረሻይቱን ዓለም እነርሱ ከሓዲዎች የሆኑትን ሕዝቦች ሃይማኖት ትቻለሁ፡፡"
        },
        {
            "index": "38",
            "transName": "ሳዲቅ & ሳኒ ሐቢብ",
            "text": "«የአባቶቼንም የኢብራሂምንና የኢስሐቅን፣ የያዕቆብንም ሃይማኖት ተከትያለሁ፡፡ ለእኛ በአላህ ምንንም ማጋራት አይገባንም ያ (አለማጋራት) በእኛ ላይና በሰዎቹ ላይ የአላህ ችሮታ ነው፡፡ ግን አብዛኞቹ ሰዎች አያመሰግኑም፡፡"
        },
        {
            "index": "39",
            "transName": "ሳዲቅ & ሳኒ ሐቢብ",
            "text": "«የእስር ቤት ጓደኞቼ ሆይ! የተለያዩ አምላኮች ይሻላሉን ወይስ አሸናፊው አንዱ አላህ"
        },
        {
            "index": "40",
            "transName": "ሳዲቅ & ሳኒ ሐቢብ",
            "text": "«ከእርሱ ሌላ እናንተና አባቶቻችሁ (አማልክት ብላችሁ) የጠራችኋቸውን ስሞች እንጅ አትገዝዙም፡፡ አላህ በእርሷ ምንም አስረጅ አላወረደም፡፡ ፍርዱ የአላህ እንጅ የሌላ አይደለም፡፡ እርሱን እንጅ ሌላን እንዳትገዙ አዟል፡፡ ይህ ትክክለኛው ሃይማኖት ነው፡፡ ግን አብዛኞቹ ሰዎች አያውቁም፡፡"
        },
        {
            "index": "41",
            "transName": "ሳዲቅ & ሳኒ ሐቢብ",
            "text": "«የወህኒ ቤት ጓደኞቼ ሆይ! አንደኛችሁማ ጌታውን (ንጉሡን) ጠጅ ያጠጣል፡፡ ሌላውማ ይሰቀላል፡፡ ከራሱም በራሪ (አሞራ) ትበላለች፡፡ ያ ፍቹን የምትጠይቁት ነገር ተፈጸመ፤» (አላቸው)፡፡"
        },
        {
            "index": "42",
            "transName": "ሳዲቅ & ሳኒ ሐቢብ",
            "text": "ለዚያም ከሁለቱ እርሱ የሚድን መሆኑን ለተጠራጠረው እጌታህ ዘንድ አስታውሰኝ አለው፡፡ ጌታውንም ከማስታወስ ሰይጣን አስረሳው፡፡ ለጥቂት ዓመታትም በወህኒ ቤቱ ውስጥ ቆየ፡፡"
        },
        {
            "index": "43",
            "transName": "ሳዲቅ & ሳኒ ሐቢብ",
            "text": "ንጉሡም «እኔ ሰባትን የሰቡ ላሞች ሰባት ከሲታዎች ሲበሏቸው ሰባትንም ለምለም ዘለላዎች ሌሎችንም ደረቆችን (ሲጠመጠሙባቸው በሕልሜ) አያለሁ፡፡ እናንተ ታላላቅ ሰዎች ሆይ! ሕልምን የምትፈቱ እንደሆናችሁ ሕልሜን ፍቱልኝ» አላቸው፡፡"
        },
        {
            "index": "44",
            "transName": "ሳዲቅ & ሳኒ ሐቢብ",
            "text": "«የሕልሞች ቅዠቶች ናቸው፡፡ እኛም የሕልሞችን ፍች ዐዋቂዎች አይደለንም» አሉት፡፡"
        },
        {
            "index": "45",
            "transName": "ሳዲቅ & ሳኒ ሐቢብ",
            "text": "ያም ከሁለቱ የዳነውና ከብዙ ጊዜ በኋላ (ዩሱፍን) ያስታወሰው ሰው «እኔ ፍቹን እነግራችኋለሁና ላኩኝ» አለ፤ (ወደ ዩሱፍ ሌደም)፡፡"
        },
        {
            "index": "46",
            "transName": "ሳዲቅ & ሳኒ ሐቢብ",
            "text": "«አንተ እውነተኛው ዩሱፍ ሆይ! ሰባትን የሰቡ ላሞች ሰባት ከሲታዎች ላሞች ሲበሉዋቸው ሰባትን ለምለም ዘለላዎችም ሌሎችንም ደረቆች (በነሱ ላይ ሲጠመጠሙባቸው ያየን ሰው ሕልም ፍች) ተችልን፡፡ ያውቁ ዘንድ ወደ ሰዎቹ ልመለስ እከጅላለሁና» (አለው)፡፡"
        },
        {
            "index": "47",
            "transName": "ሳዲቅ & ሳኒ ሐቢብ",
            "text": "(እርሱም) አለ፡- «ሰባትን የተከታተሉ ዓመታት ትዘራላችሁ፡፡ ያጨዳችሁትንም ሁሉ ከምትበሉት ጥቂት በስተቀር በዘለላው ውስጥ ተዉት፡፡"
        },
        {
            "index": "48",
            "transName": "ሳዲቅ & ሳኒ ሐቢብ",
            "text": "«ከዚያም ከእነዚያ በኋላ ካደለባችሁት ጥቂት ሲቀር ለእነሱ ያደለባችሁትን ሁሉ የሚበሉ ሰባት የችግር ዓመታት ይመጣሉ፡፡"
        },
        {
            "index": "49",
            "transName": "ሳዲቅ & ሳኒ ሐቢብ",
            "text": "«ከዚያም ከእነዚያ በኋላ ሰዎቹ በርሱ የሚዘነቡበት በርሱም (ወይንን) የሚጨምቁበት ዓመት ይመጣል፡፡»"
        },
        {
            "index": "50",
            "transName": "ሳዲቅ & ሳኒ ሐቢብ",
            "text": "ንጉሡም «እርሱን አምጡልኝ» አለ፡፡ መልክተኛውም (ዩሱፍን) በመጣው ጊዜ «ወደጌታህ ተመለስ፡፡ የዚያንም እጆቻቸውን የቆረጡትን ሴቶች ሁኔታ ጠይቀው፡፡ ጌታዬ ተንኮላቸውን ዐዋቂ ነውና» አለው፡፡"
        },
        {
            "index": "51",
            "transName": "ሳዲቅ & ሳኒ ሐቢብ",
            "text": "(ንጉሡም)፡- «ዩሱፍን ከነፍሱ ባባበላችሁት ጊዜ ነገራችሁ ምንድን ነው» አላቸው፡፡ «ለአላህ ጥራት ይገባው፡፡ በእርሱ ላይ ምንም መጥፎን ነገር አላወቅንም» አሉት፡፡ የዐዚዝ ሚስት፡-«አሁን እውነቱ ተገለጸ፡፡ እኔ ከነፍሱ አባበልኩት፡፡ እርሱም ከእውነተኞቹ ነው» አለች፡፡"
        },
        {
            "index": "52",
            "transName": "ሳዲቅ & ሳኒ ሐቢብ",
            "text": "(ዩሱፍ) «ይህ (ጌታዬ) ሩቅ ሆኖ ሳለ ያልከዳሁት መሆኔን አላህም የከዳተኞችን ተንኮል የማያቃና መሆኑን እንዲያውቅ ነው፤» (አለ)፡፡"
        },
        {
            "index": "53",
            "transName": "ሳዲቅ & ሳኒ ሐቢብ",
            "text": "«ነፍሴንም (ከስሕተት) አላጠራም፡፡ ነፍስ ሁሉ ጌታዬ የጠበቃት ካልሆነች በስተቀር በመጥፎ ነገር በእርግጥ አዛዥ ናትና፡፡ ጌታዬ በጣም መሓሪ አዛኝ ነው» (አለ)፡፡"
        },
        {
            "index": "54",
            "transName": "ሳዲቅ & ሳኒ ሐቢብ",
            "text": "ንጉሡም «እርሱን አምጡልኝ ለራሴ ግለኛ አደርገዋለሁና» አለ፡፡ ባናገረውም ጊዜ «አንተ ዛሬ እኛ ዘንድ ባለሟል ታማኝ ነህ» አለው፡፡"
        },
        {
            "index": "55",
            "transName": "ሳዲቅ & ሳኒ ሐቢብ",
            "text": "«በምድር ግምጃ ቤቶች ላይ (ሹም) አድርገኝ፡፡ እኔ ጠባቂ አዋቂ ነኝና» አለ፡፡"
        },
        {
            "index": "56",
            "transName": "ሳዲቅ & ሳኒ ሐቢብ",
            "text": "እንደዚሁም ለዩሱፍ በምድር ላይ ከእርሷ በፈለገው ስፍራ የሚሰፍር ሲሆን አስመቸነው፡፡ በችሮታችን የምንሻውን ሰው እንለያለን፡፡ የበጎ ሠሪዎችንም ዋጋ አናጠፋም፡፡"
        },
        {
            "index": "57",
            "transName": "ሳዲቅ & ሳኒ ሐቢብ",
            "text": "የመጨረሻይቱም ዓለም ምንዳ ለእነዚያ ላመኑትና ይጠነቀቁ ለነበሩት የበለጠ ነው፡፡"
        },
        {
            "index": "58",
            "transName": "ሳዲቅ & ሳኒ ሐቢብ",
            "text": "የዩሱፍ ወንድሞችም መጡ፡፡ በእርሱም ላይ ገቡ፡፡ እነሱም እርሱን የሳቱት ሲሆኑ ዐወቃቸው፡፡"
        },
        {
            "index": "59",
            "transName": "ሳዲቅ & ሳኒ ሐቢብ",
            "text": "(ጉዳያቸውን ፈጽሞ) ስንቃቸውንም ባዘጋጀላቸው ጊዜ አለ፡- «ከአባታችሁ በኩል የሆነውን ወንድማችሁን አምጡልኝ፡፡ እኔ ከአስተናጋጆች ሁሉ በላጭ ስሆን፤ ስፍርን የምሞላ መሆኔን አታዩምን"
        },
        {
            "index": "60",
            "transName": "ሳዲቅ & ሳኒ ሐቢብ",
            "text": "እርሱንም ባታመጡልኝ እኔ ዘንድ ለእናንተ ስፍር የላችሁም፤ አትቀርቡኝምም፡፡»"
        },
        {
            "index": "61",
            "transName": "ሳዲቅ & ሳኒ ሐቢብ",
            "text": "«ስለእርሱ አባቱን በጥብቅ እንጠይቃለን፡፡ እኛም (ይህንን) በእርግጥ ሠሪዎች ነን» አሉት፡፡"
        },
        {
            "index": "62",
            "transName": "ሳዲቅ & ሳኒ ሐቢብ",
            "text": "ለአሽከሮቹም «ሸቀጣቸውን ወደ ቤተሰቦቻቸው በተመለሱ ጊዜ ያውቋት ዘንድ በየጓዞቻቸው ውስጥ አድርጉላቸው፡፡ ሊመለሱ ይከጀላልና» አላቸው፡፡"
        },
        {
            "index": "63",
            "transName": "ሳዲቅ & ሳኒ ሐቢብ",
            "text": "ወደ አባታቸውም በተመሰሉ ጊዜ፡- «አባታችን ሆይ! (ወንድማችንን እስከምንወስድ) ስፍር ከእኛ ተከልክሏል፡፡ ስለዚህ ወንድማችንን ከእኛ ጋር ላከው፡፡ ይሰፍርልናልና እኛም ለርሱ ጠባቂዎች ነን» አሉ፡፡"
        },
        {
            "index": "64",
            "transName": "ሳዲቅ & ሳኒ ሐቢብ",
            "text": "«ከአሁን በፊት በወንድሙ ላይ እንዳመንኳችሁ እንጂ በእርሱ ላይ አምናችኋለሁን አላህም በጠባቂነት (ከሁሉ) የበለጠ ነው፡፡ እርሱም ከአዛኞች ሁሉ ይበልጥ አዛኝ ነው፤» አላቸው፡፡"
        },
        {
            "index": "65",
            "transName": "ሳዲቅ & ሳኒ ሐቢብ",
            "text": "ዕቃቸውንም በከፈቱ ጊዜ ሸቀጣቸው ወደእነርሱ ተመልሳ አገኙ፡፡ ፡-«አባታችን ሆይ! ምን እንፈልጋለን ይህቺ ሸቀጣችን ናት፡፡ ወደኛ ተመልሳልናለች፤ (እንረዳባታለን)፡፡ ለቤተሰቦቻችንም እንሸምታለን፡፡ ወንድማችንንም እንጠብቃለን፡፡ የግመልንም ጭነት እንጨምራለን፡፡ ይህ (በንጉሡ ላይ) ቀላል ስፍር ነው» አሉ፡፡"
        },
        {
            "index": "66",
            "transName": "ሳዲቅ & ሳኒ ሐቢብ",
            "text": "«ካልተከበባችሁ በስተቀር እርሱን በእርግጥ የምታመጡልኝ ለመሆናችሁ ከአላህ የሆነን ቃል ኪዳን መተማመኛ እስከምትሰጡኝ ድረስ ከእናንተ ጋር ፈጽሞ አልልከውም» አላቸው፡፡ መተማመኛቸውንም በሰጡት ጊዜ «አላህ በምንለው ሁሉ ላይ ምስክር ነው» አላቸው፡፡"
        },
        {
            "index": "67",
            "transName": "ሳዲቅ & ሳኒ ሐቢብ",
            "text": "አለም «ልጆቼ ሆይ! በአንድ በር አትግቡ፡፡ ግን በተለዩ በሮች ግቡ፡፡ ከአላህም (ፍርድ) በምንም አልጠቅማችሁም፤ (አልመልስላችሁም)፡፡ ፍርዱ የአላህ እንጅ የሌላ አይደለም፡፡ በእርሱ ላይ ተመካሁ፡፡ ተመኪዎችም ሁሉ በእርሱ ብቻ ይመኩ፡፡»"
        },
        {
            "index": "68",
            "transName": "ሳዲቅ & ሳኒ ሐቢብ",
            "text": "አባታቸውም ካዘዛቸው ስፍራ በገቡ ጊዜ ከአላህ (ፍርድ) ምንም ነገር ከነርሱ የሚከለክልላቸው አልነበረም፡፡ ግን በያዕቆብም ነፍስ ውስጥ የነበረች ጉዳይ ናት፡፡ ፈጸማት፡፡ እርሱም ስላሳወቅነው የዕውቀት ባለቤት ነው፤ ግን አብዛኞቹ ሰዎች አያውቁም፡፡"
        },
        {
            "index": "69",
            "transName": "ሳዲቅ & ሳኒ ሐቢብ",
            "text": "በዩሱፍ ላይ በገቡ ጊዜም ወንድሙን ወደርሱ አስጠጋው፡፡ «እነሆ እኔ ወንድምህ ነኝ፡፡ ይሠሩት በነበሩትም ሁሉ አትቆላጭ» አለው፡፡"
        },
        {
            "index": "70",
            "transName": "ሳዲቅ & ሳኒ ሐቢብ",
            "text": "ዕቃቸውንም ባዘጋጀላቸው ጊዜ፤ ዋንጫይቱን በወንድሙ ዕቃ ውስጥ አደረገ፡፡ ከዚያም «እናንተ ባለ ግመሎች ሆይ! እናንተ በእርግጥ ሌቦች ናችሁ ሲል ጠሪ ተጣራ፡፡»"
        },
        {
            "index": "71",
            "transName": "ሳዲቅ & ሳኒ ሐቢብ",
            "text": "ወደነሱ ዞረውም «ምንድን ጠፋችሁ» አሉ፡፡"
        },
        {
            "index": "72",
            "transName": "ሳዲቅ & ሳኒ ሐቢብ",
            "text": "«የንጉሡ መስፈሪያ ጠፍቶናል፡፡ እርሱንም ላመጣ ሰው የግመል ጭነት አለው፡፡ እኔም በእርሱ ተያዥ ነኝ» አለ፡፡"
        },
        {
            "index": "73",
            "transName": "ሳዲቅ & ሳኒ ሐቢብ",
            "text": "«በአላህ እንምላለን በምድር ላይ ለማጥፋት እንዳልመጣን በእርግጥ ዐውቃችኋል፡፡ ሌቦችም አልነበርንም» አሉ፡፡"
        },
        {
            "index": "74",
            "transName": "ሳዲቅ & ሳኒ ሐቢብ",
            "text": "«ውሸታሞች ብትሆኑ ቅጣቱ ምንድን ነው» አሏቸው፡፡"
        },
        {
            "index": "75",
            "transName": "ሳዲቅ & ሳኒ ሐቢብ",
            "text": "«ቅጣቱ (በያዕቆብ ሕግ) ዕቃው በጓዙ ውስጥ የተገኘበት ሰው (ራሱ መወሰድ) ነው፡፡ እርሱም ቅጣቱ ነው፡፡ እንደዚሁ በደለኞችን እንቀጣለን» አሉ፡፡"
        },
        {
            "index": "76",
            "transName": "ሳዲቅ & ሳኒ ሐቢብ",
            "text": "(ምርመራውን) ከወንድሙም ዕቃ በፊት በዕቃዎቻቸው ጀመረ፡፡ ከዚያም (ዋንጫይቱን) ከወንድሙ ዕቃ ውስጥ አወጣት፡፡ እንደዚሁ ለዩሱፍ ብልሃትን አስተማርነው፡፡ አላህ ባልሻ ኖሮ በንጉሡ ሕግ ወንድሙን ሊይዝ አይገባውም ነበር፡፡ የምንሻውን ሰው በደረጃዎች ከፍ እናደርጋለን፡፡ ከዕውቀት ባለቤቶች ሁሉ በላይም ዐዋቂ አልለ፡፡"
        },
        {
            "index": "77",
            "transName": "ሳዲቅ & ሳኒ ሐቢብ",
            "text": "«ቢሰርቅ ከአሁን በፊት የርሱው ወንድም በእርግጥ ሰርቋል» አሉ፡፡ ዩሱፍም (ይህችን ንግግር) በነፍሱ ውስጥ ደበቃት፡፡ ለእነሱም አልገለጣትም፡፡ (በልቡ) «እናንተ ሥራችሁ የከፋ ነው፡፡ አላህም የምትሉትን ሁሉ ይበልጥ ዐዋቂ ነው» አለ፡፡"
        },
        {
            "index": "78",
            "transName": "ሳዲቅ & ሳኒ ሐቢብ",
            "text": "አንተ የተከበርከው ሆይ! «ለእርሱ በእርግጥ ታላቅ ሽማግሌ አባት አለው፡፡ ስለዚህ በእርሱ ስፍራ አንደኛችንን ያዝ፡፡ እኛ ከመልካም ሠሪዎች ሆነህ እናይሃለንና» አሉት፡፡"
        },
        {
            "index": "79",
            "transName": "ሳዲቅ & ሳኒ ሐቢብ",
            "text": "«ዕቃችንን እርሱ ዘንድ ያገኘንበትን ሰው እንጂ ሌላን ከመያዝ በአላህ እንጠብቃለን፡፡ እኛ ያን ጊዜ በእርግጥ በዳዮች ነን» አለ፡፡"
        },
        {
            "index": "80",
            "transName": "ሳዲቅ & ሳኒ ሐቢብ",
            "text": "ከርሱም ተስፋን በቆረጡ ጊዜ የሚመካከሩ ሆነው ገለል አሉ፡፡ ታላቃቸው አለ «አባታቸሁ በናንተ ላይ ከአላህ የሆነን መታመኛ ኪዳን በእርግጥ የያዘባችሁ መሆኑን ከዚህም በፊት በዩሱፍ ላይ ግፍ የሠራችሁትን አታውቁምን ስለዚህ አባቴ ለእኔ እስከሚፈቅድልኝ ወይም አላህ ለኔ እስከሚፈርድልኝ ድረስ የምስርን ምድር አልለይም፡፡ እርሱም ከፈራጆች ሁሉ በላጭ ነው፡፡"
        },
        {
            "index": "81",
            "transName": "ሳዲቅ & ሳኒ ሐቢብ",
            "text": "«ወደ አባታችሁ ተመለሱ በሉትም፡- አባታችን ሆይ! ልጅህ ሰረቀ፡፡ ባወቅነውም ነገር እንጂ አልመሰከርንም፡፡ ሩቁንም ነገር (ምስጢሩን) ዐዋቂዎች አልነበርንም፡፡"
        },
        {
            "index": "82",
            "transName": "ሳዲቅ & ሳኒ ሐቢብ",
            "text": "«ያችንም በውስጧ የነበርንባትን ከተማ ያችንም በውስጧ የመጣነውን ባለ ግመል ጓድ ጠይቅ፡፡ እኛም በእርግጥ እውነተኞች ነን፡፡»"
        },
        {
            "index": "83",
            "transName": "ሳዲቅ & ሳኒ ሐቢብ",
            "text": "(ያዕቆብ) «አይደለም ነፍሶቻችሁ አንዳች ነገርን ለእናንተ ሸለሙላችሁ፡፡ (ሠራችሁትም)፡፡ መልካምም ትእግስት (ማድረግ) አለብኝ፡፡ እነርሱን (ሦስቱንም) የተሰበሰቡ ሆነው አላህ ሊያመጣልኝ ይከጀላል፡፡ እነሆ እርሱ ዐዋቂ ጥበበኛ ነውና» አላቸው፡፡"
        },
        {
            "index": "84",
            "transName": "ሳዲቅ & ሳኒ ሐቢብ",
            "text": "ከእነሱም ዘወር አለናኣ«በዩሱፍ ላይ ዋ ሐዘኔ!» አለ፡፡ ዓይኖቹም ከሐዘን (ለቅሶ) የተነሳ ነጡ፡፡ እርሱም በትካዜ የተመላ ነው፡፡"
        },
        {
            "index": "85",
            "transName": "ሳዲቅ & ሳኒ ሐቢብ",
            "text": "(እነርሱም) «በአላህ እንምላለን፡፡ ለጥፋት የቀረብክ እስከምትሆን ወይም ከጠፊዎቹ እስከምትሆን ድረስ ዩሱፍን ከማውሳት አትወገድም» አሉ፡፡"
        },
        {
            "index": "86",
            "transName": "ሳዲቅ & ሳኒ ሐቢብ",
            "text": "«ጭንቀቴንና ሐዘኔንና የማሰሙተው ወደ አላህ ብቻ ነው፡፡ ከአላህም በኩል የማታውቁትን ነገር ዐውቃለሁ» አላቸው፡፡"
        },
        {
            "index": "87",
            "transName": "ሳዲቅ & ሳኒ ሐቢብ",
            "text": "«ልጆቼ ሆይ! ሊዱ፤ ከዩሱፍና ከወንድሙም (ወሬ) ተመራመሩ፡፡ ከአላህም እዝነት ተስፋ አትቁረጡ፡፡ እነሆ ከአላህ እዝነት ከሓዲዎች ሕዝቦች እንጂ ተስፋ አይቆርጥም» (አለ)፡፡"
        },
        {
            "index": "88",
            "transName": "ሳዲቅ & ሳኒ ሐቢብ",
            "text": "በእርሱም ላይ በገቡ ጊዜ «አንተ የተከበርከው ሆይ! እኛንም ቤተሰቦቻችንንም ጉዳት ደረሰብን፡፡ ርካሽ ሸቀጥም ይዘን መጥተናል፡፡ ስፍርንም ለኛ ሙላልን፡፡ በኛም ላይ መጽውት አላህ መጽዋቾችን ይመነዳልና» አሉት፡፡"
        },
        {
            "index": "89",
            "transName": "ሳዲቅ & ሳኒ ሐቢብ",
            "text": "«እናንተ የማታውቁ በነበራችሁ ጊዜ በዩሱፍና በወንድሙ ላይ የሰራችሁትን ግፍ ዐወቃችሁን» አላቸው፡፡"
        },
        {
            "index": "90",
            "transName": "ሳዲቅ & ሳኒ ሐቢብ",
            "text": "«አንተ በእርግጥ አንተ ዩሱፍ ነህን» አሉት፡፡ «እኔ ዩሱፍ ነኝ፡፡ ይህም ወንድሜ ነው፡፡ አላህ በኛ ላይ በእርግጥ ለገሰልን፡፡ እነሆ! የሚጠነቀቅና የሚታገስ ሰው (አላህ ይክሰዋል)፡፡ አላህ የበጎ አድራጊዎችን ዋጋ አያጠፋምና» አለ፡፡"
        },
        {
            "index": "91",
            "transName": "ሳዲቅ & ሳኒ ሐቢብ",
            "text": "«በአላህ እንምላለን፡፡ አላህ በኛ ላይ በእርግጥ አበለጠህ፡፡ እኛም በእርግጥ አጥፊዎች ነበርን» አሉ፡፡"
        },
        {
            "index": "92",
            "transName": "ሳዲቅ & ሳኒ ሐቢብ",
            "text": "«ዛሬ በናንተ ላይ ወቀሳ የለባችሁም፡፡ አላህ ለእናንተ ይምራል፡፡ እርሱም ከአዛኞች ሁሉ ይበልጥ አዛኝ ነው» አላቸው፡፤"
        },
        {
            "index": "93",
            "transName": "ሳዲቅ & ሳኒ ሐቢብ",
            "text": "«ይህንን ቀሚሴን ይዛችሁ ሊዱ፡፡ በአባቴ ፊትም ጣሉት የሚያይ ሆኖ ይመጣልና፡፡ ቤተሰቦቻችሁንም ሰብስባችሁ አምጡልኝ» (አላቸው)፡፡"
        },
        {
            "index": "94",
            "transName": "ሳዲቅ & ሳኒ ሐቢብ",
            "text": "ግመል ጫኞቹም (ምስርን) በተለዩ ጊዜ አባታቸው «እኔ የዩሱፍን ሽታ በእርግጥ አገኛለሁ፡፡ ባታቄሉኝ ኖሮ (ታምኑኝ ነበር)» አለ፡፡"
        },
        {
            "index": "95",
            "transName": "ሳዲቅ & ሳኒ ሐቢብ",
            "text": "«በአላህ እንምላለን፡፡ አንተ በእርግጥ በቀድሞው ስህተትህ ውስጥ ነህ» አሉት፡፡"
        },
        {
            "index": "96",
            "transName": "ሳዲቅ & ሳኒ ሐቢብ",
            "text": "አብሳሪውም በመጣ ጊዜ (ቀሚሱን) በፊቱ ላይ ጣለው፡፡ ወዲውም የሚያይ ኾነ፡፡ «እኔ ለእናንተ፡- ከአላህ በኩል የማታውቁትን ዐውቃለሁ አላልኳችሁምን» አላቸው፡፡"
        },
        {
            "index": "97",
            "transName": "ሳዲቅ & ሳኒ ሐቢብ",
            "text": "«አባታችን ሆይ! ለኀጢአቶቻችን ምሕረትን ለምንልን እኛ ጥፋተኞች ነበርንና» አሉ፡፡"
        },
        {
            "index": "98",
            "transName": "ሳዲቅ & ሳኒ ሐቢብ",
            "text": "«ወደፊት ለእናንተ ጌታዬን ምሕረትን እለምንላችኋለሁ፡፡ እነሆ! እርሱ መሓሪው አዛኙ ነውና» አላቸው፡፤"
        },
        {
            "index": "99",
            "transName": "ሳዲቅ & ሳኒ ሐቢብ",
            "text": "በዩሱፍ ላይም በገቡ ጊዜ ወላጆቹን ወደርሱ አስጠጋቸው፡፡ «በአላህም ፈቃድ ጥብቆች ስትኾኑ ምስርን ግቡ» አላቸው፡፡"
        },
        {
            "index": "100",
            "transName": "ሳዲቅ & ሳኒ ሐቢብ",
            "text": "ወላጆቹንም በዙፋኑ ላይ አወጣቸው፡፡ ለእርሱም ሰጋጆች ኾነው ወረዱለት፡፡ «አባቴም ሆይ! ይህ ፊት ያየኋት ሕልሜ ፍች ነው፡፡ ጌታ በእርግጥ እውነት አደረጋት፡፡ ከወህኒ ቤትም ባወጣኝና ሰይጣንም በእኔና በወንድሞቼ መካከል ከአበላሸ በኋላ እናንተን ከገጠር ባመጣችሁ ጊዜ በእርግጥ ለኔ መልካም ዋለልኝ፡፡ ጌታዬ ለሚሻው ነገር እዝነቱ ረቂቅ ነው፡፡ እነሆ እሱ ዐዋቂው ጥበበኛው ነው» አለ፡፡"
        },
        {
            "index": "101",
            "transName": "ሳዲቅ & ሳኒ ሐቢብ",
            "text": "«ጌታዬ ሆይ! ከንግሥና በእርግጥ ሰጠኸኝ፡፡ ከሕልሞችም ፍች አስተማርከኝ፡፡ የሰማያትና የምድር ፈጣሪ ሆይ! አንተ በቅርቢቱና በመጨረሻይቱ ዓለም ረዳቴ ነህ፡፡ ሙስሊም ሆኘ ግደለኝ፡፡ በመልካሞቹም አስጠጋኝ» (አለ)፡፡"
        },
        {
            "index": "102",
            "transName": "ሳዲቅ & ሳኒ ሐቢብ",
            "text": "(ሙሐመድ ሆይ) ይህ ወዳንተ የምናወርደው ሲኾን፤ ከሩቅ ወሬዎች ነው፡፡ አንተም እነርሱ (በዩሱፍ) የሚመክሩ ኾነው ነገራቸውን በቆረጡ ጊዜ እነሱ ዘንድ አልነበርክም፡፡"
        },
        {
            "index": "103",
            "transName": "ሳዲቅ & ሳኒ ሐቢብ",
            "text": "አብዛኛዎቹም ሰዎች (ለማመናቸው) ብትጓጓም የሚያምኑ አይደሉም፡፡"
        },
        {
            "index": "104",
            "transName": "ሳዲቅ & ሳኒ ሐቢብ",
            "text": "በእርሱም (በቁርአን) ላይ ምንም ዋጋ አትጠይቃቸውም፡፡ እርሱ ለዓለማት ግሳጼ እንጂ ሌላ አይደለም፡፡"
        },
        {
            "index": "105",
            "transName": "ሳዲቅ & ሳኒ ሐቢብ",
            "text": "በሰማያትና በምድርም ካለችው ምልክት ብዙይቱ እነሱ ከርሷ ዘንጊዎች ኾነው በርሷ ላይ ያልፋሉ፡፡"
        },
        {
            "index": "106",
            "transName": "ሳዲቅ & ሳኒ ሐቢብ",
            "text": "አብዛኞቻቸውም፤ እነሱ አጋሪዎች ኾነው እንጂ በአላህ አያምኑም፡፡"
        },
        {
            "index": "107",
            "transName": "ሳዲቅ & ሳኒ ሐቢብ",
            "text": "ከአላህ ቅጣት ሸፋኝ አደጋ የምትመጣባቸው ወይም ሰዓቲቱ እነሱ የማያውቁ ሲኾኑ በድንገት የምትመጣባቸው መኾኑዋን አይፈሩምን"
        },
        {
            "index": "108",
            "transName": "ሳዲቅ & ሳኒ ሐቢብ",
            "text": "«ይህች መንገዴ ናት፡፡ ወደ አላህ እጠራለሁ፡፡ እኔም የተከተለኝም ሰው በግልጽ ማስረጃ ላይ ነን፡፡ ጥራትም ለአላህ ይገባው፡፡ እኔም ከአጋሪዎቹ አይደለሁም» በል፡፡"
        },
        {
            "index": "109",
            "transName": "ሳዲቅ & ሳኒ ሐቢብ",
            "text": "ካንተ በፊትም ከከተሞች ሰዎች ወደነርሱ ራእይ የምናወርድላቸው የኾኑን ወንዶችን እንጂ አልላክንም፡፡ በምድር ላይ አይኼዱምና የእነዚያን ከእነሱ በፊት የነበሩትን ሰዎች መጨረሻ አይመለከቱምን የመጨረሻይቱም አገር ለእነዚያ ለተጠነቀቁት በእርግጥ የተሻለች ናት፤ አታውቁምን"
        },
        {
            "index": "110",
            "transName": "ሳዲቅ & ሳኒ ሐቢብ",
            "text": "መልክተኞቹም ተስፋ በቆረጡና እነርሱ በእርግጥ የተዋሹ መኾናቸውን በተጠራጠሩ ጊዜ እርዳታችን መጣላቸው፡፡ (እኛ) የምንሻውም ሰው እንዲድን ተደረገ፡፡ ቅጣታችንም ከአጋሪዎቹ ሕዝቦች ላይ አይመለስም፡፡"
        },
        {
            "index": "111",
            "transName": "ሳዲቅ & ሳኒ ሐቢብ",
            "text": "በታሪካቸው ውስጥ ለአእምሮ ባለ ቤቶች በእርግጥ መገሰጫ ነበረ፡፡ (ይህ ቁርኣን) የሚቀጣጠፍ ወሬ አይደለም፡፡ ግን ያንን በስተፊቱ ያለውን አረጋጋጭ ለነገርም ሁሉ ገላጭ ለሚያምኑ ሕዝቦችም መሪና ችሮታ ነው፡፡"
        }
    ],
    "index": "12"
}