{
    "name": "الزخرف",
    "aya": [
        {
            "index": "1",
            "transName": "ሳዲቅ & ሳኒ ሐቢብ",
            "text": "ሐ.መ (ሓ ሚም)፡፡"
        },
        {
            "index": "2",
            "transName": "ሳዲቅ & ሳኒ ሐቢብ",
            "text": "ገላጭ በኾነው መጽሐፍ እምላለሁ፡፡"
        },
        {
            "index": "3",
            "transName": "ሳዲቅ & ሳኒ ሐቢብ",
            "text": "እኛ ታውቁ ዘንድ ዐረብኛ ቁርኣን አደረግነው፡፡"
        },
        {
            "index": "4",
            "transName": "ሳዲቅ & ሳኒ ሐቢብ",
            "text": "እርሱም በመጽሐፎቹ እናት ውስጥ እኛ ዘንድ በእርግጥ ከፍተኛ ጥበብ የተመላ ነው፡፡"
        },
        {
            "index": "5",
            "transName": "ሳዲቅ & ሳኒ ሐቢብ",
            "text": "ድንበር አላፊዎች ሕዝቦች ለመኾናችሁ ቁርኣኑን ከእናንተ ማገድን እናግዳለን?"
        },
        {
            "index": "6",
            "transName": "ሳዲቅ & ሳኒ ሐቢብ",
            "text": "በፊተኞቹም ሕዝቦች ውስጥ ከነቢይ ብዙን ልከናል፡፡"
        },
        {
            "index": "7",
            "transName": "ሳዲቅ & ሳኒ ሐቢብ",
            "text": "ከነቢይም አንድም የሚመጣላቸው አልነበረም በእርሱ ይሳለቁበት የነበሩ ቢኾኑ እንጅ፡፡"
        },
        {
            "index": "8",
            "transName": "ሳዲቅ & ሳኒ ሐቢብ",
            "text": "ከእነርሱም በኀይል ይበልጥ የበረቱትን አጥፍተናል፡፡ የፊተኞቹም (አጠፋፍ) ምሳሌ አልፏል፡፡"
        },
        {
            "index": "9",
            "transName": "ሳዲቅ & ሳኒ ሐቢብ",
            "text": "«ሰማያትንና ምድርንም ማን ፈጠራቸው» ብለህ ብትጠይቃቸው «አሸናፊው ዐዋቂው (አላህ) በእርግጥ ፈጠራቸው» ይላሉ፡፡"
        },
        {
            "index": "10",
            "transName": "ሳዲቅ & ሳኒ ሐቢብ",
            "text": "(እርሱ) ያ ምድርን ለእናንተ ምንጣፍ ያደረገላችሁ በርሷም ውስጥ ትምመሩ ዘንድ ለእናንተ መንገዶችን ያደረገላችሁ ነው፡፡"
        },
        {
            "index": "11",
            "transName": "ሳዲቅ & ሳኒ ሐቢብ",
            "text": "ያም ከሰማያ ውሃን በልክ ያወረደላችሁ ነው፡፡ በእርሱም የሞተችውን አገር ሕያው አደረግን፡፡ እንደዚሁ (ከመቃብራችሁ) ትውወጣላችሁ፡፡"
        },
        {
            "index": "12",
            "transName": "ሳዲቅ & ሳኒ ሐቢብ",
            "text": "ያም ዓይነቶችን ሁሉ የፈጠረ ለእናንተም ከመርከቦችና ከቤት እንስሳዎች የምትጋልቧቸውን ያደረገላችሁ ነው፡፡"
        },
        {
            "index": "13",
            "transName": "ሳዲቅ & ሳኒ ሐቢብ",
            "text": "በጀርባዎቹ ላይ እንድትደላደሉ ከዚያም በርሱ ላይ የተደላደላችሁ ጊዜ የጌታችሁን ጸጋ እንድታስታውሱ፤ እንድትሉም፡- «ያ ይህንን የማንችለው ስንኾን ለእኛ ያገራለን ጌታ ጥራት ይገባው፡፡"
        },
        {
            "index": "14",
            "transName": "ሳዲቅ & ሳኒ ሐቢብ",
            "text": "እኛም በእርግጥ ወደ ጌታችን ተመላሾች፤ነን» (እንድትሉ)፡፡"
        },
        {
            "index": "15",
            "transName": "ሳዲቅ & ሳኒ ሐቢብ",
            "text": "ከባሮቹም ለእርሱ ቁራጭን (ልጅን) አደረጉለት፡፡ ሰው በእርግጥ ግልጽ ከሓዲ ነው፡፡"
        },
        {
            "index": "16",
            "transName": "ሳዲቅ & ሳኒ ሐቢብ",
            "text": "ከሚፈጥረው ውስጥ ሴቶች ልጆችን ያዘን? በወንዶች ልጆችም (እናንተን) መረጣችሁን?"
        },
        {
            "index": "17",
            "transName": "ሳዲቅ & ሳኒ ሐቢብ",
            "text": "አንዳቸውም ለአልረሕማን ምሳሌ ባደረገው ነገር (በሴት ልጅ) በተበሰረ ጊዜ እርሱ በቁጭት የተመላ ኾኖ ፊቱ የጠቆረ ይኾናል፡፡"
        },
        {
            "index": "18",
            "transName": "ሳዲቅ & ሳኒ ሐቢብ",
            "text": "በጌጥ (ተከልሶ) እንዲያድግ የሚደረገውን? እርሱም (ለደካማነቱ) በክርክር የሚያብራራውን ፍጡር (ሴትን) ለአላህ ያደርጋሉን?"
        },
        {
            "index": "19",
            "transName": "ሳዲቅ & ሳኒ ሐቢብ",
            "text": "መላእክትንም እነርሱ የአልረሕማን ባሮች የኾኑትን ሴቶች አደረጉ፡፡ ሲፈጠሩ ነበሩን? መመስከራቸው በእርግጥ ትጻፋለች፡፡ ይጠየቃሉም፡፡"
        },
        {
            "index": "20",
            "transName": "ሳዲቅ & ሳኒ ሐቢብ",
            "text": "«አልረሕማንም በሻ ኖሮ ባልተገዛናቸው ነበር» አሉ፡፡ ለእነርሱ በዚህ ምንም ዕውቀት የላቸውም፡፡ እነርሱ የሚዋሹ እንጅ ሌላ አይደሉም፡፡"
        },
        {
            "index": "21",
            "transName": "ሳዲቅ & ሳኒ ሐቢብ",
            "text": "ከእርሱ (ከቁርኣን) በፊት መጽሐፍን ሰጠናቸውን? ስለዚህ እነርሱ እርሱን የጨበጡ ናቸውን?"
        },
        {
            "index": "22",
            "transName": "ሳዲቅ & ሳኒ ሐቢብ",
            "text": "ከቶውንም «እኛ አባቶቻችንን በሃይማኖት ላይ አገኘናቸው፡፡ እኛም በፈለጎቻቸው ላይ ተመሪዎች ነን» አሉ፡፡"
        },
        {
            "index": "23",
            "transName": "ሳዲቅ & ሳኒ ሐቢብ",
            "text": "(ነገሩ) እንደዚሁም ነው፡፡ ከበፊትህ በማንኛይቱም ከተማ ውስጥ አስፈራሪን አልላክንም፤ ቅምጥሎችዋ እኛ አባቶቻችንን በሃይማኖት ላይ አገኘን፤ እኛም በፈለጎቻቸው ላይ ተከታዮች ነን ያሉ ቢኾኑ እንጅ፡፡"
        },
        {
            "index": "24",
            "transName": "ሳዲቅ & ሳኒ ሐቢብ",
            "text": "(አስፈራሪው) «አባቶቻችሁን በእርሱ ላይ ከአገኛችሁበት ይበልጥ ቀጥተኛን (ሃይማኖት) ባመጣላችሁም?» አላቸው፡፡ «እኛ በእርሱ በተላካችሁበት ነገር ከሓዲዎች ነን» አሉ፡፡"
        },
        {
            "index": "25",
            "transName": "ሳዲቅ & ሳኒ ሐቢብ",
            "text": "ከእነርሱም ተበቀልን፡፡ ያስተባባዮቹም መጨረሻ እንዴት እንደ ነበረ ተመልከት፡፡"
        },
        {
            "index": "26",
            "transName": "ሳዲቅ & ሳኒ ሐቢብ",
            "text": "ኢብራሂምም ለአባቱና ለሕዝቦቹ ባለ ጊዜ (አስታውስ)፡፡ «እኔ ከምትግገዙት ሁሉ ንጹሕ ነኝ፡፡»"
        },
        {
            "index": "27",
            "transName": "ሳዲቅ & ሳኒ ሐቢብ",
            "text": "«ከዚያ ከፈጠረኝ በስተቀር (አልግገዛም)፡፡ እርሱ በእርግጥ ይመራኛልና፡፡»"
        },
        {
            "index": "28",
            "transName": "ሳዲቅ & ሳኒ ሐቢብ",
            "text": "በዝርዮቹም ውስጥ ይመለሱ ዘንድ (ባንድ አምላክ ማመንን) ቀሪ ቃል አደረጋት፡፡"
        },
        {
            "index": "29",
            "transName": "ሳዲቅ & ሳኒ ሐቢብ",
            "text": "ይልቅ እነዚህን (ቁረይሾችን)፣ አባቶቻቸውንም ቁርኣንና ገላጭ መልክተኛ እስከመጣላቸው ድረስ አጣቀምኳቸው፡፡"
        },
        {
            "index": "30",
            "transName": "ሳዲቅ & ሳኒ ሐቢብ",
            "text": "እውነቱም በመጣላቸው ጊዜ «ይህ ድግምት ነው፡፡ እኛም በእርሱ ከሓዲዎች ነን» አሉ፡፡"
        },
        {
            "index": "31",
            "transName": "ሳዲቅ & ሳኒ ሐቢብ",
            "text": "«ይህም ቁርኣን ከሁለቱ ከተሞች በታላቅ ሰው ላይ አይወረድም ኖሯልን?» አሉ፡፡"
        },
        {
            "index": "32",
            "transName": "ሳዲቅ & ሳኒ ሐቢብ",
            "text": "እነርሱ የጌታህን ችሮታ ያከፈፍላሉን? እኛ በቅርቢቱ ሕይወት ኑሯቸውን በመካከላቸው አከፋፍለናል፡፡ ከፊላቸውም ከፊሉን ሠራተኛ አድርጎ ይይዝ ዘንድ ከፊላቸውን ከከፊሉ በላይ በደረጃዎች (በሀብት) አበለጥን፡፡ የጌታህም ጸጋ (ገነት) ከሚሰበስቡት (ሃብት) በላጨ ናት፡፡"
        },
        {
            "index": "33",
            "transName": "ሳዲቅ & ሳኒ ሐቢብ",
            "text": "ሰዎችም (በክሕደት) አንድ ሕዝብ የሚኾኑ ባልነበሩ ኖሮ በአልረሕማን ፤ለሚክዱት ሰዎች (በዚህች ዓለም) ለቤቶቻቸው ከብር የኾኑን ጣራዎች በእነርሱ ላይ የሚወጡባቸውንም (የብር) መሰላሎች ባደረግንላቸው ነበር፡፡"
        },
        {
            "index": "34",
            "transName": "ሳዲቅ & ሳኒ ሐቢብ",
            "text": "ለቤቶቻቸውም ደጃፎችን በእነርሱ ላይ የሚደገፉባቸውንም አልጋዎች (ከብር ባደረግንላቸው ነበር)፡፡"
        },
        {
            "index": "35",
            "transName": "ሳዲቅ & ሳኒ ሐቢብ",
            "text": "የወርቅ ጌጥንም (ባደረግንላቸው ነበር)፡፡ ይህም ሁሉ የቅርቢቱ ሕይወት መጣቀሚያ እንጅ ሌላ አይደለም፤ (ጠፊ ነው)፡፡ መጨረሻይቱም አገር በጌታህ ዘንድ ለጥንቁቆቹ ናት፡፡"
        },
        {
            "index": "36",
            "transName": "ሳዲቅ & ሳኒ ሐቢብ",
            "text": "ከአልረሕማን ግሣጼ (ከቁርኣን) የሚደናበርም ሰው ለእርሱ ሰይጣንን እናስጠጋለን፡፡ ስለዚህ እርሱ ለእርሱ ቁራኛ ነው፡፡"
        },
        {
            "index": "37",
            "transName": "ሳዲቅ & ሳኒ ሐቢብ",
            "text": "እነርሱም (ተደናባሪዎቹ) ተመሪዎች መኾናቸውን የሚያስቡ ሲኾኑ እነርሱ (ሰይጣናት) ከቀጥተኛው መንገድ በእርግጥ ያግዷቸዋል፡፡"
        },
        {
            "index": "38",
            "transName": "ሳዲቅ & ሳኒ ሐቢብ",
            "text": "(በትንሣኤ) ወደኛ በመጣም ጊዜ (ቁራኛዬ ሆይ!) «በእኔና ባንተ መካከል የምሥራቅና የምዕራብ ርቀት በኖረ ወይ ምኞቴ! ምን የከፋህ ቁራኛ ነህ» ይላል፡፡"
        },
        {
            "index": "39",
            "transName": "ሳዲቅ & ሳኒ ሐቢብ",
            "text": "ስለ በደላችሁም ዛሬ እናንተ በቅጣት ተጋሪዎች መኾናችሁ አይጠቅማችሁም፤ (ይባላሉ)፡፡"
        },
        {
            "index": "40",
            "transName": "ሳዲቅ & ሳኒ ሐቢብ",
            "text": "አንተ ደንቆሮዎችን ታሰማለህን? ወይስ ዕውሮችንና በግልጽ ጥመት ውስጥ የኾኑን ሰዎች ትመራለህን?"
        },
        {
            "index": "41",
            "transName": "ሳዲቅ & ሳኒ ሐቢብ",
            "text": "አንተንም (ቅጣታቸውን ስታይ) ብንወስድህ እኛ ከእነርሱ ተበቃዮች ነን፡፡"
        },
        {
            "index": "42",
            "transName": "ሳዲቅ & ሳኒ ሐቢብ",
            "text": "ወይም ያንን የቀጠርናቸውን ብናሳይህ እኛ በእነርሱ (ቅጣት) ላይ ቻይዎች ነን፡፡"
        },
        {
            "index": "43",
            "transName": "ሳዲቅ & ሳኒ ሐቢብ",
            "text": "ያንንም ወደ አንተ የተወረደልህን አጥብቀህ ያዝ፡፡ አንተ በቀጥተኛው መንገድ ላይ ነህና፡፡"
        },
        {
            "index": "44",
            "transName": "ሳዲቅ & ሳኒ ሐቢብ",
            "text": "እርሱም (ቁርኣን) ለአንተ፣ ለሕዘቦችህም ታላቅ ክብር ነው፡፡ ወደ ፊትም (ከርሱ) ትጠየቃላችሁ፡፡"
        },
        {
            "index": "45",
            "transName": "ሳዲቅ & ሳኒ ሐቢብ",
            "text": "ከመልእክተኞቻችንም ካንተ በፊት የላክናቸውን (ተከታዮቻቸውን) ከአልረሕማን ሌላ የሚገዙዋቸው የኾኑን አማልክት አድርገን እንደ ኾነ ጠይቃቸው፡፡"
        },
        {
            "index": "46",
            "transName": "ሳዲቅ & ሳኒ ሐቢብ",
            "text": "ሙሳንም በተዓምራቶቻችን ወደ ፈርዖንና ወደ ሹማምንቶቹ በእርግጥ ላክን፡፡ «እኔ የዓለማት ጌታ መልክተኛ ነኝ» አላቸውም፡፡"
        },
        {
            "index": "47",
            "transName": "ሳዲቅ & ሳኒ ሐቢብ",
            "text": "በተዓምራታችንም በመጣባቸው ጊዜ ወዲያውኑ እነርሱ በእርሷ ይስቃሉ፡፡"
        },
        {
            "index": "48",
            "transName": "ሳዲቅ & ሳኒ ሐቢብ",
            "text": "ከተዓምርም አንዲትንም አናሳያቸውም እርሷ ከብጤዋ በጣም የበለጠች ብትኾን እንጅ፡፡ (ከክህደታቸው) ይመለሱም ዘንድ በቅጣት ያዝናቸው፡፡"
        },
        {
            "index": "49",
            "transName": "ሳዲቅ & ሳኒ ሐቢብ",
            "text": "«አንተ ድግምተኛ (ዐዋቂ) ሆይ! ጌታህን አንተ ዘንድ ቃል በገባልህ ለእኛ ለምንልን፡፡ እኛ (ቅጣቱን ቢያነሳልን) ተመሪዎች ነን» አሉም፡፡"
        },
        {
            "index": "50",
            "transName": "ሳዲቅ & ሳኒ ሐቢብ",
            "text": "ስቃዩን ከእነርሱ ላይ በገለጥንም ጊዜ ወዲያውኑ ኪዳናቸውን ያፈርሳሉ፡፡"
        },
        {
            "index": "51",
            "transName": "ሳዲቅ & ሳኒ ሐቢብ",
            "text": "ፈርዖንም በሕዝቦቹ ውስጥ ተጣራ፡፡ አለም፤ «ሕዝቦቼ ሆይ! የምስር ግዛት የኔ አይደለምን? እነዚህም ጅረቶች ከስሬ የሚፈሱ ሲኾኑ (የኔ አይደሉምን?) አትመለከቱምን?"
        },
        {
            "index": "52",
            "transName": "ሳዲቅ & ሳኒ ሐቢብ",
            "text": "«በውነቱ እኔ ከዚህ ያ እርሱ ወራዳ ንግግሩንም ሊገልጽ የማይቀርብ ከኾነው በላጭ ነኝ፡፡"
        },
        {
            "index": "53",
            "transName": "ሳዲቅ & ሳኒ ሐቢብ",
            "text": "«በእርሱም ላይ የወርቅ አንባሮች ለምን አልተጣሉበትም ወይም መላእክት ከእርሱ ጋር ተቆራኝተው ለምን አልመጡም» (አለ)፡፡"
        },
        {
            "index": "54",
            "transName": "ሳዲቅ & ሳኒ ሐቢብ",
            "text": "ሕዝቦቹንም አቄላቸው፡፡ ታዘዙትም፡፡ እነርሱ አመጸኞች ሕዝቦች ነበሩና፡፡"
        },
        {
            "index": "55",
            "transName": "ሳዲቅ & ሳኒ ሐቢብ",
            "text": "ባስቆጡንም ጊዜ ከእነርሱ በተበቀለን፡፡ ሁሉንም አሰጠምናቸውም፡፡"
        },
        {
            "index": "56",
            "transName": "ሳዲቅ & ሳኒ ሐቢብ",
            "text": "(በጥፋት) ቀዳሚዎችና ለኋለኞቹ (መቀጣጫ) ምሳሌም አደረግናቸው፡፡"
        },
        {
            "index": "57",
            "transName": "ሳዲቅ & ሳኒ ሐቢብ",
            "text": "የመርየም ልጅም ምሳሌ በተደረገ ጊዜ ሕዝቦችህ (ከሓዲዎቹ) ወዲያውኑ ከእርሱ ይስቃሉ፡፡"
        },
        {
            "index": "58",
            "transName": "ሳዲቅ & ሳኒ ሐቢብ",
            "text": "«አማልክቶቻችን ይበልጣሉን ወይስ እርሱ?» አሉም፡፡ ለክርክርም እንጅ ላንተ እርሱን ምሳሌ አላደረጉትም፡፡ በእውነት እነርሱ ክርክረ ብርቱ ሕዝቦች ናቸው፡፡"
        },
        {
            "index": "59",
            "transName": "ሳዲቅ & ሳኒ ሐቢብ",
            "text": "እርሱ በርሱ ላይ የለገስንለት ለእስራኤለም ልጆች ተዓምር ያደረግነው የኾነ ባሪያ እንጅ ሌላ አይደለም፡፡"
        },
        {
            "index": "60",
            "transName": "ሳዲቅ & ሳኒ ሐቢብ",
            "text": "ብንሻም ኖሮ በምድር ላይ ከእናነተ ምትክ መላእክትን ባደረግን ነበር፡፡"
        },
        {
            "index": "61",
            "transName": "ሳዲቅ & ሳኒ ሐቢብ",
            "text": "እርሱም (ዒሳ) ለሰዓቲቱ (ማወቂያ) በእርግጥ ምልክት ነው፡፡ «በእርሷም አትጠራጠሩ፡፡ ተከተሉኝም፤ ይህ ቀጥተኛ መንገድ ነው» (በላቸው)፡፡"
        },
        {
            "index": "62",
            "transName": "ሳዲቅ & ሳኒ ሐቢብ",
            "text": "ሰይጣንም አያግዳችሁ፡፡ እርሱ ለእናንተ ግልጽ ጠላት ነውና፡፡"
        },
        {
            "index": "63",
            "transName": "ሳዲቅ & ሳኒ ሐቢብ",
            "text": "ዒሳ በታምራቶች በመጣ ጊዜም አላቸው «በእርግጥ በጥበብ መጣኋችሁ፡፡ የዚያንም በርሱ የምትለያዩበትን ከፊሉን ለናንተ ላብራራላችሁ (መጣሁ)፡፡ አላህንም ፍሩ፡፡ ታዘዙኝም፡፡"
        },
        {
            "index": "64",
            "transName": "ሳዲቅ & ሳኒ ሐቢብ",
            "text": "«አላህ ጌታዬ ጌታችሁም ነውና ተገዙት፡፡ ይህ ቀጥተኛ መንገድ ነው፡፡»"
        },
        {
            "index": "65",
            "transName": "ሳዲቅ & ሳኒ ሐቢብ",
            "text": "ከመካከላቸውም አሕዛቦቹ ተለያዩ፡፡ ለእነዚያም ለበደሉት ከአሳማሚ ቀን ቅጣት ወዮላቸው፡፡"
        },
        {
            "index": "66",
            "transName": "ሳዲቅ & ሳኒ ሐቢብ",
            "text": "ሰዓቲቱን እነርሱ የማያውቁ ኾነው በድንገት ልትመጣባቸው እንጅ ይጠባበቃሉን?"
        },
        {
            "index": "67",
            "transName": "ሳዲቅ & ሳኒ ሐቢብ",
            "text": "ወዳጆች በዚያ ቀን ከፊላቸው ለከፊሉ ጠላት ነው፡፡ አላህን ፈሪዎች ብቻ ሲቀሩ፡፡"
        },
        {
            "index": "68",
            "transName": "ሳዲቅ & ሳኒ ሐቢብ",
            "text": "(ለነርሱስ) «ባሮቼ ሆይ! ዛሬ ቀን በእናንተ ላይ ፍርሃት የለባችሁም እናንተም የምታዝኑ አይደላችሁም» (ይባላሉ)፡፡"
        },
        {
            "index": "69",
            "transName": "ሳዲቅ & ሳኒ ሐቢብ",
            "text": "እነዚያ በአንቀጾቻችን ያመኑና ፍጹም ታዛዦች የነበሩ (ባሮቼ ሆይ!)"
        },
        {
            "index": "70",
            "transName": "ሳዲቅ & ሳኒ ሐቢብ",
            "text": "«ገነትን ግቡ እናንተም ሚስቶቻችሁም ትደሰታላችሁ ትከበሩም አላችሁ» (ይባላሉ)፡፡"
        },
        {
            "index": "71",
            "transName": "ሳዲቅ & ሳኒ ሐቢብ",
            "text": "ከወርቅ የኾኑ ሰፋፊ ዝርግ ሳሕኖችና ኩባያዎች በእነርሱ ላይ ይዝዞራሉ፡፡ በእርሷም ውስጥ ነፍሶች የሚከጅሉት፣ ዓይኖችም የሚደሰቱበት ሁሉ አልለ፡፡ እናንተም በውስጧ ዘላለም ዘውታሪዎች ናችሁ፡፡"
        },
        {
            "index": "72",
            "transName": "ሳዲቅ & ሳኒ ሐቢብ",
            "text": "ይህችም ያቺ ትሠሩት በነበራችሁት ዋጋ የተሰጣችኋት ገነት ናት፡፡"
        },
        {
            "index": "73",
            "transName": "ሳዲቅ & ሳኒ ሐቢብ",
            "text": "ለእናንተ በውስጧ ብዙ ፍረፍሬዎች በእርግጥ ዘውታሪዎች ናቸው፡፡"
        },
        {
            "index": "74",
            "transName": "ሳዲቅ & ሳኒ ሐቢብ",
            "text": "አመጸኞች በገሀነም ስቃይ ውስጥ በእርግጥ ዘውታሪዎች ናቸው፡፡"
        },
        {
            "index": "75",
            "transName": "ሳዲቅ & ሳኒ ሐቢብ",
            "text": "ከእነርሱ (ቅጣቱ) አይቀለልላቸውም፡፡ እነርሱም በእርሱ ውስጥ ተሰፋ ቆራጮች ናቸው፡፡"
        },
        {
            "index": "76",
            "transName": "ሳዲቅ & ሳኒ ሐቢብ",
            "text": "አልበደልናቸውምም፤ ግን በዳዮቹ እነርሱው ነበሩ፡፡"
        },
        {
            "index": "77",
            "transName": "ሳዲቅ & ሳኒ ሐቢብ",
            "text": "«ማሊክ ሆይ! ጌታህ በኛ ላይ (በሞት) ይፍረድ፡፡» እያሉ ይጣራሉም፡፡ «እናንተ (በቅጣቱ ውስጥ) ዘላለም ነዋሪዎች ናችሁ» ይላቸዋል፡፡"
        },
        {
            "index": "78",
            "transName": "ሳዲቅ & ሳኒ ሐቢብ",
            "text": "እውነተኛውን መንገድ በእርግጥ አመጣንላችሁ፡፡ ግን አብዛኞቻችሁ እውነቱን ጠይዎች ናችሁ፡፡"
        },
        {
            "index": "79",
            "transName": "ሳዲቅ & ሳኒ ሐቢብ",
            "text": "ይልቁንም (በነቢዩ ላይ በማደም) ነገርን አጠነከሩን? እኛም (ተንኮላቸውን ወደእነርሱ በመመለስ) አጠንካሪዎች ነን፡፡"
        },
        {
            "index": "80",
            "transName": "ሳዲቅ & ሳኒ ሐቢብ",
            "text": "ወይም እኛ ምስጢራቸውንና ውይይታቸውን የማንሰማ መኾናችንን ያስባሉን? አይደለም፤ መልክተኞቻችንም እነርሱ ዘንድ ይጽፋሉ፡፡"
        },
        {
            "index": "81",
            "transName": "ሳዲቅ & ሳኒ ሐቢብ",
            "text": "«ለአልረሕማን ልጅ (የለውም እንጅ) ቢኖረው እኔ (ለልጁ) የተገዢዎቹ መጀመሪያ ነኝ» በላቸው፡፡"
        },
        {
            "index": "82",
            "transName": "ሳዲቅ & ሳኒ ሐቢብ",
            "text": "የሰማያትና የምድር ጌታ የዙፋኑ ጌታ ከሚሉት ነገር ሁሉ ጠራ፡፡"
        },
        {
            "index": "83",
            "transName": "ሳዲቅ & ሳኒ ሐቢብ",
            "text": "ተዋቸውም፡፡ ያንን ይስፈራሩበት የነበሩትን ቀናቸውን እስከሚገናኙ ድረስ (በስሕተታቸው ውስጥ) ይዋኙ ይጫዎቱም፡፡"
        },
        {
            "index": "84",
            "transName": "ሳዲቅ & ሳኒ ሐቢብ",
            "text": "እርሱም ያ በሰማይ ውስጥ ሊግገዙት የሚገባው በምድርም ውስጥ ሊግገዙት የሚገባው አምላክ ነው፡፡ እርሱም ብልሃተኛው ዐዋቂው ነው፡፡"
        },
        {
            "index": "85",
            "transName": "ሳዲቅ & ሳኒ ሐቢብ",
            "text": "ያም የሰማያትና የምድር በመካከላቸውም ያለው ሁሉ ንግሥና የእርሱ ብቻ የኾነው አምላክ ላቀ፡፡ የሰዓቲቱም (የመምጫዋ ዘመን) ዕውቀት እርሱ ዘንድ ብቻ ነው፡፡ ወደእርሱም ትመለሳላችሁ፡፡"
        },
        {
            "index": "86",
            "transName": "ሳዲቅ & ሳኒ ሐቢብ",
            "text": "እነዚያም ከአላህ ሌላ የሚግገዟቸው እነርሱ የሚያውቁ ኾነው በእውነት ከመሰከሩት በስተቀር ምልጃን አይችሉም፡፡"
        },
        {
            "index": "87",
            "transName": "ሳዲቅ & ሳኒ ሐቢብ",
            "text": "ማን እንደፈጠራቸውም ብትጠይቃቸው «በእርግጥ አላህ ነው» ይላሉ፡፡ ታዲያ (ከእምነት) ወዴት ይዞራሉ፡፡"
        },
        {
            "index": "88",
            "transName": "ሳዲቅ & ሳኒ ሐቢብ",
            "text": "(ነቢዩ) ጌታዬ ሆይ! እነዚህ የማያምኑ ሕዝቦች ናቸው፤ የማለቱም (ዕውቀት አላህ ዘንድ ነው)፡፡"
        },
        {
            "index": "89",
            "transName": "ሳዲቅ & ሳኒ ሐቢብ",
            "text": "እነርሱንም ተዋቸው፡፡ ነገሬ ሰላም ነው በልም፡፡ ወደፊትም (የሚመጣባቸውን) ያውቃሉ፡፡"
        }
    ],
    "index": "43"
}